<?xml version="1.0" encoding="utf-8"?>
<!-- Generator: Adobe Illustrator 16.0.0, SVG Export Plug-In . SVG Version: 6.00 Build 0)  -->
<!DOCTYPE svg PUBLIC "-//W3C//DTD SVG 1.1//EN" "http://www.w3.org/Graphics/SVG/1.1/DTD/svg11.dtd">
<svg version="1.1" id="Layer_1" xmlns="http://www.w3.org/2000/svg" xmlns:xlink="http://www.w3.org/1999/xlink" x="0px" y="0px"
	 width="648.103px" height="107.675px" viewBox="72.45 252.663 648.103 107.675"
	 enable-background="new 72.45 252.663 648.103 107.675" xml:space="preserve">
<g id="Layer_2">
	<path fill="#003660" d="M253.309,297.859c0.008,2.402-0.008,4.534-0.049,6.403c-0.042,1.861-0.173,3.517-0.394,4.968
		c-0.213,1.442-0.582,2.729-1.09,3.869c-0.517,1.133-1.23,2.174-2.157,3.106c-0.492,0.483-0.926,0.878-1.312,1.173
		c-0.386,0.296-0.729,0.533-1.05,0.697c-0.41,0.213-0.697,0.386-0.852,0.517c-0.164,0.132-0.238,0.255-0.23,0.369
		c0.008,0.122,0.049,0.222,0.123,0.287c0.082,0.073,0.173,0.106,0.271,0.106c0.131,0,0.279-0.024,0.459-0.074
		c0.173-0.051,0.353-0.123,0.525-0.223c0.516-0.244,0.976-0.467,1.377-0.68c0.402-0.205,0.763-0.402,1.083-0.6
		c1.574-0.976,2.919-1.983,4.042-3.033c1.115-1.049,2.033-2.105,2.746-3.164c0.705-1.059,1.229-2.091,1.574-3.1
		c0.328-0.928,0.574-1.877,0.746-2.861c0.172-0.983,0.287-1.968,0.344-2.951c0.066-0.993,0.09-1.96,0.09-2.894
		c-0.008-1.23-0.033-2.435-0.074-3.6c-0.041-1.164-0.066-2.279-0.074-3.337v-9.101c0-1.492,0-2.755,0-3.804
		c0-1.05,0-1.936,0.008-2.648c0-0.714,0.008-1.304,0.016-1.779c0-0.476,0.017-0.885,0.025-1.23c0.016-0.336,0.032-0.664,0.049-0.967
		c0.033-0.853,0.188-1.509,0.451-1.959c0.262-0.443,0.721-0.73,1.369-0.845c0.287-0.049,0.525-0.09,0.729-0.115
		c0.205-0.024,0.436-0.033,0.697-0.033c0.295,0,0.517-0.033,0.664-0.09c0.147-0.066,0.221-0.189,0.221-0.353
		c0-0.173-0.09-0.287-0.262-0.353c-0.172-0.065-0.427-0.09-0.771-0.09c-0.483,0-1.024,0.008-1.615,0.024
		c-0.582,0.008-1.172,0.033-1.763,0.049c-0.591,0.016-1.132,0.032-1.624,0.049c-0.492,0.017-0.894,0.025-1.197,0.025
		c-0.328,0-0.746-0.008-1.263-0.025c-0.517-0.017-1.099-0.033-1.729-0.049c-0.64-0.016-1.296-0.041-1.984-0.049
		c-0.68-0.016-1.353-0.024-2.008-0.024c-0.369-0.008-0.64,0.024-0.82,0.09c-0.172,0.066-0.262,0.18-0.262,0.353
		c0,0.164,0.074,0.287,0.213,0.353c0.148,0.057,0.354,0.09,0.623,0.09c0.361,0,0.713,0.008,1.074,0.033
		c0.353,0.025,0.64,0.065,0.844,0.115c0.533,0.106,0.951,0.279,1.246,0.509c0.295,0.221,0.509,0.524,0.64,0.901
		c0.123,0.369,0.205,0.836,0.229,1.394c0.017,0.303,0.033,0.631,0.05,0.967c0.008,0.345,0.024,0.754,0.032,1.23
		c0,0.476,0.008,1.065,0.008,1.779c0.008,0.713,0.008,1.598,0.008,2.648c0,1.049,0,2.312,0,3.804v14.121H253.309z M698.464,297.958
		c0,0.271,0,0.656-0.009,1.164c0,0.509-0.016,1.091-0.032,1.738c-0.024,0.648-0.058,1.32-0.106,2.018
		c-0.04,0.721-0.188,1.328-0.427,1.812c-0.245,0.484-0.605,0.787-1.099,0.894c-0.222,0.049-0.476,0.099-0.771,0.139
		c-0.286,0.033-0.605,0.058-0.95,0.058c-0.271,0-0.469,0.033-0.6,0.106c-0.123,0.065-0.188,0.165-0.188,0.287
		c0,0.189,0.099,0.32,0.287,0.395c0.181,0.064,0.45,0.098,0.795,0.098c0.467,0,0.982-0.008,1.558-0.023
		c0.574-0.018,1.156-0.033,1.738-0.05c0.591-0.017,1.131-0.032,1.632-0.049c0.5-0.017,0.909-0.024,1.221-0.024
		c0.452,0,1.074,0.017,1.854,0.041c0.777,0.024,1.664,0.041,2.64,0.065c0.978,0.024,1.992,0.041,3.033,0.041
		c0.32,0,0.574-0.041,0.755-0.115c0.182-0.082,0.279-0.205,0.279-0.377c0-0.123-0.065-0.222-0.188-0.287
		c-0.132-0.074-0.328-0.106-0.599-0.106c-0.238,0-0.501-0.008-0.787-0.024c-0.296-0.025-0.591-0.049-0.886-0.074
		c-0.287-0.033-0.549-0.065-0.787-0.099c-0.483-0.065-0.877-0.229-1.156-0.475c-0.287-0.238-0.492-0.558-0.623-0.935
		c-0.131-0.385-0.213-0.82-0.237-1.295c-0.05-0.697-0.081-1.37-0.105-2.018c-0.017-0.647-0.033-1.229-0.033-1.738
		c-0.008-0.508-0.008-0.894-0.008-1.164v-4.034c-0.009-0.541,0.008-1.074,0.024-1.607c0.023-0.525,0.09-1.066,0.195-1.606
		c0.1-0.55,0.279-1.115,0.518-1.706c0.132-0.312,0.369-0.787,0.714-1.427c0.344-0.648,0.762-1.394,1.254-2.254
		c0.492-0.861,1.017-1.779,1.591-2.747c0.573-0.967,1.147-1.935,1.738-2.902c0.582-0.959,1.146-1.869,1.681-2.722
		s1.018-1.59,1.436-2.214c0.418-0.631,0.746-1.09,0.983-1.377c0.353-0.443,0.664-0.813,0.942-1.107
		c0.271-0.295,0.541-0.549,0.803-0.754c0.271-0.205,0.574-0.394,0.911-0.549c0.385-0.197,0.771-0.344,1.172-0.443
		c0.402-0.099,0.729-0.147,0.992-0.147c0.279,0,0.5-0.041,0.672-0.115c0.172-0.082,0.254-0.206,0.263-0.377
		c0-0.147-0.082-0.246-0.237-0.311c-0.155-0.058-0.377-0.082-0.646-0.082c-0.247,0-0.6,0.008-1.065,0.024
		c-0.459,0.008-0.969,0.033-1.51,0.049c-0.54,0.016-1.058,0.032-1.541,0.049s-0.86,0.025-1.147,0.025
		c-0.713-0.008-1.459-0.033-2.237-0.074c-0.778-0.041-1.574-0.064-2.386-0.074c-0.296-0.008-0.509,0.024-0.64,0.09
		c-0.133,0.066-0.197,0.18-0.197,0.353c0.008,0.139,0.098,0.246,0.278,0.319c0.173,0.066,0.378,0.123,0.605,0.172
		c0.411,0.107,0.689,0.271,0.828,0.5c0.148,0.229,0.214,0.476,0.205,0.729c0,0.319-0.049,0.688-0.155,1.115
		c-0.114,0.418-0.287,0.902-0.532,1.443c-0.106,0.23-0.304,0.615-0.599,1.165c-0.296,0.549-0.656,1.213-1.083,1.976
		c-0.418,0.763-0.877,1.583-1.36,2.452s-0.959,1.729-1.442,2.599c-0.484,0.861-0.927,1.665-1.336,2.402
		c-0.41,0.747-0.755,1.377-1.033,1.894c-0.271,0.517-0.451,0.861-0.524,1.041c-0.114-0.205-0.346-0.599-0.673-1.172
		c-0.336-0.574-0.737-1.271-1.205-2.09c-0.476-0.82-0.983-1.697-1.524-2.64c-0.541-0.943-1.082-1.885-1.623-2.829
		c-0.541-0.951-1.05-1.836-1.518-2.656c-0.468-0.828-0.86-1.533-1.181-2.116c-0.319-0.582-0.533-0.983-0.64-1.205
		c-0.173-0.345-0.32-0.665-0.428-0.951c-0.105-0.279-0.164-0.525-0.164-0.722c0-0.206,0.059-0.385,0.182-0.557
		c0.113-0.165,0.287-0.271,0.509-0.329c0.369-0.09,0.639-0.172,0.819-0.237c0.172-0.066,0.263-0.164,0.263-0.303
		c0-0.295-0.246-0.443-0.738-0.443c-0.737,0-1.451,0.016-2.115,0.041c-0.672,0.017-1.278,0.042-1.812,0.065
		c-0.541,0.025-0.983,0.042-1.337,0.042c-0.418,0-0.927-0.008-1.524-0.025c-0.606-0.017-1.222-0.033-1.854-0.049
		c-0.631-0.016-1.196-0.041-1.705-0.049c-0.509-0.016-0.877-0.024-1.115-0.024c-0.295,0-0.523,0.033-0.688,0.106
		c-0.164,0.074-0.246,0.189-0.246,0.337c0.008,0.164,0.082,0.287,0.222,0.353c0.139,0.057,0.313,0.09,0.517,0.09
		c0.304,0,0.641,0.065,1.018,0.188c0.369,0.123,0.722,0.271,1.049,0.451c0.478,0.271,1.001,0.713,1.591,1.312
		c0.582,0.606,1.182,1.37,1.805,2.279c0.255,0.369,0.59,0.885,1.009,1.55c0.41,0.656,0.885,1.402,1.401,2.238
		c0.518,0.837,1.058,1.706,1.615,2.616c0.549,0.902,1.1,1.795,1.623,2.665c0.524,0.87,1.009,1.665,1.443,2.395
		c0.434,0.729,0.795,1.328,1.064,1.803c0.278,0.484,0.442,0.779,0.5,0.902c0.213,0.459,0.41,0.927,0.582,1.385
		c0.164,0.459,0.305,0.984,0.401,1.574c0.099,0.599,0.147,1.329,0.147,2.206v4.029H698.464z M658.296,292.399
		c0,1.517,0,2.935-0.009,4.271c-0.008,1.328-0.032,2.518-0.065,3.575c-0.031,1.058-0.09,1.935-0.172,2.632
		c-0.064,0.721-0.196,1.328-0.4,1.812c-0.205,0.484-0.542,0.787-1.025,0.894c-0.222,0.049-0.476,0.099-0.771,0.139
		c-0.296,0.033-0.633,0.058-1,0.058c-0.287,0-0.492,0.033-0.615,0.105c-0.114,0.065-0.172,0.165-0.172,0.287
		c0,0.172,0.082,0.295,0.254,0.377c0.164,0.074,0.41,0.115,0.729,0.115c0.5,0,1.05-0.008,1.641-0.024s1.188-0.033,1.771-0.049
		c0.591-0.017,1.133-0.033,1.624-0.049c0.483-0.018,0.877-0.025,1.164-0.025c0.467,0,1.099,0.018,1.896,0.043
		c0.795,0.023,1.688,0.041,2.688,0.064c1.001,0.025,2.05,0.041,3.141,0.041c0.279,0,0.5-0.041,0.673-0.115
		c0.172-0.082,0.254-0.205,0.263-0.377c0-0.123-0.065-0.222-0.188-0.287c-0.132-0.074-0.328-0.105-0.599-0.105
		c-0.246,0-0.524-0.008-0.828-0.024c-0.295-0.025-0.59-0.049-0.886-0.074c-0.295-0.033-0.559-0.065-0.795-0.099
		c-0.484-0.065-0.861-0.221-1.123-0.467c-0.263-0.246-0.442-0.558-0.559-0.935c-0.114-0.369-0.196-0.795-0.237-1.255
		c-0.081-0.713-0.14-1.598-0.172-2.664c-0.033-1.066-0.059-2.263-0.065-3.591c-0.009-1.336-0.009-2.754-0.009-4.271v-20.169
		l6.199,0.147c1.45,0.042,2.591,0.197,3.427,0.476c0.844,0.27,1.443,0.615,1.804,1.016c0.36,0.41,0.559,0.829,0.573,1.263
		l0.05,0.542c0.024,0.361,0.065,0.615,0.141,0.771c0.081,0.146,0.213,0.213,0.4,0.213c0.147,0,0.246-0.074,0.313-0.213
		c0.064-0.131,0.105-0.328,0.131-0.574c0-0.336,0.008-0.762,0.024-1.287c0.017-0.524,0.032-1.083,0.05-1.656
		c0.016-0.582,0.032-1.124,0.049-1.615c0.017-0.492,0.023-0.877,0.023-1.148c0.01-0.369-0.016-0.631-0.064-0.795
		s-0.164-0.237-0.328-0.237c-0.098,0-0.245,0.024-0.459,0.065c-0.213,0.049-0.5,0.106-0.868,0.18
		c-0.361,0.049-0.828,0.107-1.387,0.156c-0.549,0.057-1.221,0.082-2.008,0.09h-19.48c-0.541,0-1.105-0.008-1.681-0.033
		c-0.574-0.016-1.141-0.048-1.689-0.082c-0.549-0.041-1.064-0.082-1.549-0.131c-0.402-0.041-0.738-0.106-1.009-0.197
		c-0.264-0.09-0.483-0.181-0.656-0.263c-0.172-0.082-0.319-0.122-0.451-0.131c-0.146,0-0.262,0.073-0.352,0.23
		c-0.091,0.147-0.165,0.385-0.238,0.705c-0.023,0.09-0.064,0.312-0.146,0.664c-0.074,0.354-0.156,0.779-0.254,1.271
		c-0.107,0.492-0.197,0.992-0.297,1.5c-0.098,0.508-0.171,0.968-0.236,1.369c-0.065,0.402-0.1,0.68-0.1,0.853
		c0,0.271,0.025,0.467,0.092,0.599c0.063,0.123,0.18,0.188,0.352,0.188c0.146,0,0.263-0.049,0.345-0.148
		c0.082-0.098,0.147-0.246,0.197-0.442c0.049-0.197,0.14-0.443,0.271-0.729c0.132-0.295,0.319-0.624,0.565-0.992
		c0.237-0.361,0.549-0.631,0.935-0.828c0.377-0.197,0.879-0.336,1.5-0.426c0.615-0.09,1.396-0.147,2.338-0.172l7.329-0.197v20.165
		H658.296z M616.481,292.399v-8.658c0-1.484,0-2.755,0-3.804c0-1.05,0-1.936-0.009-2.648c0-0.706-0.009-1.304-0.009-1.779
		c-0.008-0.476-0.023-0.885-0.032-1.229c-0.017-0.336-0.032-0.664-0.05-0.967c-0.023-0.558-0.104-1.025-0.229-1.394
		c-0.132-0.377-0.345-0.68-0.642-0.901c-0.295-0.229-0.713-0.402-1.246-0.509c-0.203-0.049-0.49-0.09-0.844-0.115
		c-0.36-0.024-0.714-0.033-1.074-0.033c-0.271,0-0.476-0.033-0.622-0.09c-0.141-0.066-0.214-0.189-0.214-0.353
		c0-0.173,0.091-0.287,0.263-0.353c0.181-0.065,0.451-0.098,0.819-0.09c0.656,0,1.328,0.008,2.01,0.024
		c0.68,0.008,1.328,0.033,1.949,0.049c0.624,0.016,1.174,0.032,1.657,0.049s0.86,0.025,1.123,0.025c0.426,0,0.951-0.008,1.573-0.025
		c0.624-0.017,1.271-0.033,1.952-0.049c0.681-0.016,1.319-0.041,1.919-0.049c0.605-0.016,1.099-0.024,1.492-0.024
		c1.041-0.008,2.082,0.041,3.132,0.139c1.058,0.105,2.082,0.312,3.082,0.615c1.001,0.311,1.942,0.762,2.837,1.36
		c0.353,0.238,0.722,0.566,1.106,0.984c0.386,0.417,0.746,0.918,1.082,1.5s0.614,1.229,0.828,1.943
		c0.213,0.713,0.319,1.484,0.328,2.313c0.008,1.205-0.181,2.402-0.583,3.575c-0.394,1.181-1.064,2.378-2.017,3.607
		c-0.951,1.222-2.246,2.501-3.896,3.837c2.182,2.755,4.141,5.223,5.896,7.387c1.747,2.173,3.337,4.018,4.779,5.551
		c0.688,0.705,1.328,1.279,1.919,1.705c0.591,0.426,1.123,0.754,1.591,0.984c0.477,0.221,0.877,0.377,1.214,0.476
		c0.336,0.09,0.599,0.148,0.787,0.18c0.271,0.049,0.517,0.09,0.746,0.115c0.222,0.024,0.435,0.032,0.631,0.032
		s0.345,0.033,0.442,0.106c0.1,0.065,0.147,0.165,0.147,0.287c0,0.189-0.082,0.32-0.246,0.394c-0.164,0.065-0.395,0.099-0.688,0.099
		h-4.674c-0.909,0-1.672-0.033-2.304-0.09c-0.632-0.058-1.172-0.156-1.641-0.295c-0.459-0.14-0.9-0.32-1.318-0.55
		c-0.698-0.377-1.387-0.886-2.074-1.533c-0.688-0.647-1.41-1.451-2.165-2.395c-0.755-0.943-1.591-2.042-2.501-3.304
		c-0.491-0.689-1-1.386-1.5-2.099s-0.983-1.394-1.435-2.033c-0.451-0.639-0.845-1.197-1.182-1.664
		c-0.336-0.468-0.591-0.804-0.755-0.992c-0.122-0.147-0.254-0.238-0.4-0.287c-0.147-0.041-0.313-0.066-0.484-0.057l-4.279-0.099
		c-0.123,0-0.222,0.025-0.286,0.082c-0.073,0.066-0.106,0.165-0.106,0.313v0.688c0,1.533,0,2.968,0.009,4.304
		c0.008,1.336,0.032,2.534,0.065,3.591c0.032,1.058,0.09,1.935,0.172,2.632c0.041,0.475,0.123,0.91,0.237,1.295
		c0.114,0.377,0.296,0.697,0.558,0.935c0.263,0.246,0.64,0.41,1.123,0.475c0.255,0.033,0.524,0.065,0.819,0.099
		c0.297,0.024,0.592,0.049,0.869,0.074c0.278,0.017,0.518,0.024,0.723,0.024c0.196,0,0.345,0.033,0.441,0.106
		c0.1,0.065,0.147,0.165,0.147,0.287c0,0.172-0.081,0.295-0.254,0.377c-0.164,0.074-0.41,0.115-0.729,0.115
		c-0.722,0-1.468-0.008-2.229-0.024c-0.764-0.017-1.493-0.032-2.183-0.049c-0.688-0.017-1.277-0.032-1.778-0.049
		c-0.5-0.017-0.846-0.024-1.041-0.024c-0.237,0-0.591,0.008-1.059,0.024c-0.459,0.017-0.976,0.032-1.558,0.049
		c-0.574,0.017-1.156,0.033-1.746,0.049c-0.59,0.017-1.14,0.024-1.641,0.024c-0.319,0-0.564-0.041-0.729-0.115
		c-0.172-0.082-0.254-0.205-0.254-0.377c0-0.123,0.058-0.222,0.172-0.287c0.123-0.074,0.328-0.106,0.615-0.106
		c0.369,0,0.705-0.024,1-0.058c0.295-0.041,0.55-0.09,0.771-0.139c0.327-0.065,0.582-0.229,0.763-0.475
		c0.188-0.238,0.327-0.558,0.427-0.935c0.099-0.385,0.18-0.82,0.237-1.295c0.081-0.697,0.14-1.575,0.172-2.632
		c0.032-1.057,0.058-2.247,0.065-3.575C616.481,295.333,616.481,293.916,616.481,292.399L616.481,292.399z M622.286,272.672v14.955
		c0,0.262,0.023,0.459,0.091,0.59c0.065,0.131,0.18,0.229,0.354,0.295c0.353,0.114,0.729,0.205,1.155,0.279
		c0.417,0.074,0.853,0.13,1.294,0.164c0.443,0.033,0.878,0.049,1.288,0.049c0.647,0,1.173-0.025,1.582-0.074
		c0.41-0.049,0.764-0.139,1.049-0.263c0.288-0.123,0.575-0.287,0.861-0.5c0.501-0.361,0.968-0.852,1.41-1.5
		c0.435-0.64,0.796-1.443,1.065-2.41c0.278-0.976,0.419-2.132,0.427-3.468c-0.008-1.394-0.172-2.599-0.499-3.616
		c-0.329-1.025-0.771-1.877-1.313-2.574c-0.55-0.689-1.147-1.246-1.813-1.656c-0.664-0.41-1.328-0.714-2.008-0.894
		c-0.674-0.18-1.306-0.271-1.896-0.262c-0.614,0-1.14,0.008-1.582,0.041c-0.435,0.032-0.779,0.082-1.023,0.156
		c-0.174,0.049-0.287,0.123-0.354,0.229C622.311,272.328,622.286,272.476,622.286,272.672L622.286,272.672z M585.392,292.399
		c0,1.517,0,2.935-0.009,4.271c-0.008,1.328-0.031,2.518-0.064,3.575c-0.032,1.058-0.09,1.935-0.172,2.632
		c-0.059,0.475-0.141,0.91-0.237,1.287c-0.099,0.385-0.237,0.697-0.427,0.943c-0.181,0.246-0.436,0.41-0.763,0.475
		c-0.222,0.049-0.477,0.099-0.771,0.139c-0.295,0.033-0.631,0.058-1,0.058c-0.287,0-0.492,0.033-0.615,0.106
		c-0.114,0.065-0.172,0.165-0.172,0.287c0,0.172,0.082,0.295,0.254,0.377c0.164,0.074,0.41,0.115,0.729,0.115
		c0.5-0.008,1.05-0.023,1.641-0.049c0.599-0.033,1.181-0.049,1.754-0.049c0.599-0.025,1.148-0.043,1.641-0.043
		c0.499-0.008,0.886-0.008,1.163-0.008c0.73,0,1.501,0.008,2.321,0.033c0.819,0.025,1.746,0.066,2.795,0.115
		c1.05,0.023,2.271,0.058,3.665,0.09c1.395,0.033,3.009,0.059,4.846,0.059c0.615,0.008,1.1-0.009,1.443-0.05
		s0.606-0.146,0.786-0.328c0.181-0.18,0.32-0.484,0.427-0.901c0.065-0.254,0.131-0.632,0.205-1.106
		c0.074-0.484,0.14-1.009,0.205-1.567c0.065-0.565,0.122-1.098,0.164-1.598c0.041-0.5,0.064-0.894,0.064-1.188
		c0.009-0.254-0.008-0.459-0.05-0.624c-0.04-0.172-0.154-0.254-0.344-0.262c-0.164,0-0.287,0.049-0.36,0.164
		c-0.073,0.114-0.14,0.303-0.181,0.574c-0.164,1-0.418,1.779-0.755,2.353c-0.344,0.573-0.828,1-1.459,1.287
		c-0.436,0.197-0.927,0.328-1.484,0.418c-0.549,0.082-1.105,0.13-1.654,0.147c-0.551,0.025-1.051,0.025-1.484,0.025
		c-1.246,0.008-2.255-0.05-3.025-0.164c-0.771-0.123-1.36-0.328-1.771-0.631c-0.409-0.295-0.688-0.722-0.854-1.263
		c-0.154-0.541-0.236-1.23-0.254-2.074c-0.009-0.295-0.017-0.688-0.017-1.181c-0.008-0.492-0.008-1.041-0.008-1.64
		c0.008-0.598,0.008-1.197,0.008-1.812c0.008-0.607,0.008-1.172,0.008-1.697c0.009-0.524,0.009-0.951,0.009-1.295v-3.886
		c0-0.148,0.018-0.271,0.058-0.361c0.041-0.082,0.115-0.131,0.237-0.131c0.246,0,0.607,0,1.091,0.008
		c0.483,0,1.018,0.008,1.606,0.017c0.599,0.008,1.181,0.016,1.764,0.024c0.582,0.016,1.106,0.024,1.559,0.041
		c0.449,0.017,0.771,0.033,0.967,0.058c0.606,0.065,1.091,0.189,1.468,0.369c0.377,0.172,0.664,0.394,0.869,0.656
		c0.205,0.263,0.344,0.566,0.418,0.894c0.074,0.32,0.115,0.64,0.14,0.943c0.018,0.303,0.041,0.583,0.059,0.828
		c0,0.123,0.033,0.229,0.09,0.312c0.065,0.083,0.181,0.131,0.353,0.131c0.147-0.008,0.246-0.058,0.313-0.156
		c0.064-0.098,0.099-0.221,0.115-0.36c0.016-0.147,0.016-0.287,0.016-0.418c0-0.091,0.009-0.271,0.025-0.525
		c0.016-0.254,0.031-0.549,0.057-0.886c0.018-0.335,0.041-0.672,0.065-1.008c0.017-0.329,0.032-0.624,0.05-0.877
		c0.064-0.828,0.132-1.492,0.188-1.984c0.059-0.492,0.106-0.861,0.147-1.099c0.041-0.246,0.058-0.418,0.058-0.508
		c0-0.147-0.033-0.246-0.099-0.312c-0.065-0.058-0.147-0.082-0.245-0.082c-0.115,0-0.238,0.058-0.354,0.172
		c-0.124,0.115-0.264,0.271-0.435,0.467c-0.222,0.238-0.518,0.41-0.902,0.517c-0.386,0.106-0.868,0.18-1.459,0.222
		c-0.237,0.016-0.624,0.032-1.147,0.048c-0.524,0.008-1.131,0.025-1.796,0.025c-0.672,0.008-1.345,0.016-2.017,0.016
		c-0.665,0.008-1.264,0.008-1.788,0.008c-0.517,0-0.894,0-1.123,0c-0.146,0-0.237-0.05-0.286-0.14
		c-0.041-0.098-0.066-0.229-0.059-0.401v-12.446c0-0.173,0.024-0.295,0.082-0.377c0.049-0.082,0.141-0.115,0.263-0.115
		c0.205,0,0.551,0,1.024,0.008c0.476,0.008,1.017,0.016,1.615,0.033c0.605,0.008,1.213,0.024,1.812,0.041
		c0.6,0.017,1.124,0.033,1.583,0.058c0.459,0.016,0.771,0.032,0.951,0.057c0.813,0.098,1.436,0.229,1.869,0.394
		c0.442,0.164,0.762,0.361,0.967,0.59c0.205,0.229,0.361,0.492,0.46,0.787c0.082,0.196,0.147,0.418,0.188,0.648
		c0.041,0.222,0.072,0.443,0.082,0.639c0.016,0.205,0.023,0.361,0.023,0.484c0,0.222,0.033,0.393,0.091,0.508
		c0.065,0.115,0.181,0.18,0.354,0.18c0.172-0.008,0.286-0.065,0.36-0.18c0.064-0.115,0.113-0.229,0.131-0.361
		c0.024-0.156,0.049-0.385,0.072-0.689c0.025-0.303,0.051-0.623,0.066-0.976c0.023-0.344,0.041-0.664,0.064-0.951
		c0.018-0.288,0.032-0.5,0.041-0.631c0.05-0.746,0.106-1.328,0.164-1.763c0.065-0.427,0.114-0.746,0.164-0.959
		c0.041-0.213,0.065-0.369,0.065-0.476c0-0.123-0.017-0.229-0.058-0.312c-0.041-0.082-0.114-0.131-0.237-0.131
		c-0.123,0.009-0.255,0.033-0.395,0.083c-0.14,0.049-0.271,0.082-0.394,0.114c-0.206,0.049-0.483,0.099-0.854,0.148
		c-0.369,0.049-0.786,0.098-1.264,0.147c-0.163,0.008-0.541,0.016-1.123,0.016c-0.582,0.008-1.295,0.017-2.132,0.017
		c-0.836,0.008-1.721,0.008-2.656,0.008c-0.934,0-1.836,0.008-2.705,0.008c-0.868,0-1.632,0-2.286,0c-0.656,0-1.115,0-1.395,0
		c-0.354,0-0.796-0.008-1.329-0.033c-0.532-0.016-1.123-0.041-1.771-0.065c-0.623,0-1.271-0.008-1.951-0.024
		c-0.688-0.016-1.361-0.024-2.033-0.024c-0.369,0-0.64,0.024-0.82,0.09c-0.172,0.066-0.263,0.18-0.263,0.353
		c0,0.164,0.074,0.287,0.214,0.353c0.147,0.057,0.354,0.09,0.623,0.09c0.36,0,0.713,0.008,1.074,0.033
		c0.353,0.025,0.64,0.065,0.844,0.115c0.533,0.115,0.951,0.279,1.246,0.509c0.296,0.229,0.509,0.524,0.64,0.901
		c0.124,0.377,0.205,0.836,0.229,1.394c0.017,0.303,0.033,0.631,0.05,0.967c0.008,0.345,0.024,0.754,0.032,1.23
		c0,0.476,0.008,1.074,0.008,1.787c0.009,0.705,0.009,1.59,0.009,2.641c0,1.049,0,2.32,0,3.804v8.656H585.392z M553.17,292.399
		c0,1.517,0,2.935-0.008,4.271c-0.008,1.328-0.032,2.518-0.065,3.575c-0.031,1.058-0.09,1.935-0.172,2.632
		c-0.058,0.475-0.14,0.91-0.237,1.295c-0.1,0.377-0.237,0.697-0.427,0.935c-0.181,0.246-0.435,0.41-0.763,0.475
		c-0.222,0.049-0.477,0.099-0.771,0.139c-0.296,0.033-0.632,0.058-1,0.058c-0.286,0-0.491,0.033-0.614,0.105
		c-0.115,0.065-0.173,0.165-0.173,0.287c0,0.172,0.082,0.295,0.255,0.377c0.164,0.074,0.409,0.115,0.729,0.115
		c0.5,0,1.05-0.008,1.641-0.023c0.591-0.018,1.181-0.033,1.771-0.05s1.131-0.032,1.623-0.049c0.483-0.017,0.877-0.024,1.164-0.024
		c0.435,0,1.041,0.017,1.828,0.041c0.779,0.024,1.665,0.041,2.665,0.065c0.992,0.024,2.041,0.041,3.132,0.041
		c0.278,0,0.5-0.041,0.672-0.115c0.173-0.082,0.254-0.205,0.263-0.377c0-0.123-0.064-0.222-0.188-0.287
		c-0.132-0.074-0.328-0.105-0.599-0.105c-0.246,0-0.524-0.008-0.828-0.024c-0.295-0.025-0.591-0.049-0.886-0.074
		c-0.296-0.033-0.559-0.065-0.796-0.099c-0.483-0.065-0.86-0.229-1.123-0.467c-0.263-0.246-0.441-0.558-0.558-0.935
		c-0.115-0.369-0.197-0.795-0.238-1.255c-0.081-0.713-0.139-1.598-0.172-2.664c-0.033-1.066-0.057-2.263-0.064-3.591
		c-0.01-1.336-0.01-2.754-0.01-4.271v-19.677c0-0.271,0.033-0.484,0.107-0.631c0.065-0.156,0.164-0.254,0.287-0.303
		c0.229-0.074,0.508-0.124,0.852-0.156c0.337-0.032,0.689-0.041,1.066-0.041c0.386-0.008,0.845,0.041,1.386,0.131
		c0.541,0.099,1.115,0.287,1.722,0.566c0.614,0.279,1.214,0.688,1.813,1.221c0.681,0.624,1.222,1.271,1.615,1.96
		c0.395,0.688,0.688,1.37,0.868,2.042c0.188,0.672,0.305,1.303,0.354,1.885c0.05,0.583,0.074,1.083,0.066,1.492
		c-0.01,1.255-0.23,2.386-0.642,3.386c-0.418,1-0.959,1.854-1.623,2.55c-0.664,0.706-1.377,1.247-2.14,1.616
		c-0.754,0.377-1.483,0.565-2.189,0.565c-0.508,0-0.867,0.041-1.072,0.123c-0.215,0.082-0.313,0.222-0.305,0.418
		c0.008,0.164,0.074,0.279,0.205,0.328c0.123,0.058,0.254,0.099,0.386,0.115c0.14,0.023,0.313,0.041,0.517,0.041
		c0.214,0.009,0.386,0.009,0.517,0.009c1.755-0.009,3.369-0.304,4.837-0.877c1.469-0.582,2.747-1.394,3.838-2.46
		c1.082-1.057,1.918-2.312,2.518-3.763c0.599-1.451,0.902-3.05,0.91-4.804c-0.008-0.877-0.141-1.689-0.395-2.451
		c-0.254-0.754-0.574-1.427-0.941-2.009c-0.377-0.582-0.756-1.05-1.123-1.394c-0.189-0.197-0.492-0.442-0.896-0.754
		c-0.409-0.304-0.967-0.615-1.672-0.927c-0.697-0.312-1.591-0.574-2.674-0.787c-1.073-0.213-2.377-0.328-3.91-0.336
		c-0.763,0-1.565,0.016-2.402,0.041c-0.845,0.017-1.673,0.042-2.483,0.065c-0.819,0.025-1.565,0.042-2.246,0.042
		c-0.477,0-1.099-0.016-1.869-0.042c-0.771-0.024-1.616-0.048-2.525-0.065c-0.909-0.024-1.804-0.041-2.688-0.041
		c-0.369-0.008-0.64,0.024-0.819,0.09c-0.173,0.066-0.263,0.18-0.263,0.353c0,0.164,0.074,0.287,0.213,0.353
		c0.147,0.057,0.354,0.09,0.623,0.09c0.361,0,0.714,0.008,1.074,0.033c0.353,0.025,0.64,0.065,0.845,0.115
		c0.533,0.106,0.951,0.279,1.246,0.509c0.295,0.221,0.508,0.524,0.64,0.901c0.123,0.369,0.205,0.836,0.229,1.394
		c0.016,0.303,0.031,0.631,0.049,0.967c0.009,0.345,0.023,0.754,0.033,1.229c0,0.477,0.008,1.074,0.008,1.779
		c0.008,0.713,0.008,1.598,0.008,2.648c0,1.049,0,2.32,0,3.804v8.655H553.17z M522.523,307.354c2.501-0.009,4.813-0.345,6.92-1.017
		c2.106-0.673,3.983-1.615,5.648-2.837c1.656-1.23,3.065-2.672,4.23-4.354c1.155-1.672,2.042-3.518,2.646-5.542
		c0.607-2.017,0.919-4.157,0.919-6.42c-0.008-2.829-0.468-5.37-1.386-7.625c-0.91-2.263-2.229-4.197-3.96-5.796
		c-1.722-1.607-3.813-2.837-6.256-3.69c-2.443-0.854-5.197-1.278-8.272-1.287c-2.459,0.009-4.665,0.287-6.625,0.845
		c-1.967,0.549-3.696,1.312-5.196,2.287c-1.51,0.968-2.796,2.091-3.87,3.354c-1.074,1.271-1.951,2.624-2.641,4.058
		c-0.681,1.443-1.181,2.903-1.501,4.387c-0.327,1.492-0.482,2.943-0.482,4.354c0,1.459,0.164,2.943,0.491,4.452
		c0.328,1.509,0.828,2.977,1.51,4.419c0.681,1.435,1.558,2.779,2.615,4.034c1.064,1.254,2.327,2.361,3.796,3.313
		c1.468,0.959,3.147,1.705,5.042,2.238C518.048,307.064,520.171,307.345,522.523,307.354L522.523,307.354z M524.59,304.894
		c-1.894-0.008-3.624-0.32-5.197-0.927c-1.573-0.606-2.977-1.467-4.197-2.583c-1.23-1.115-2.265-2.435-3.107-3.959
		c-0.853-1.525-1.492-3.206-1.935-5.043c-0.443-1.836-0.664-3.779-0.664-5.837c0.008-2.443,0.246-4.542,0.713-6.305
		c0.468-1.763,1.105-3.23,1.918-4.411c0.812-1.173,1.729-2.107,2.764-2.788c1.041-0.689,2.132-1.181,3.279-1.468
		c1.14-0.295,2.287-0.435,3.428-0.427c2.032,0.009,3.919,0.418,5.656,1.238c1.738,0.82,3.264,2.009,4.575,3.558
		c1.312,1.55,2.328,3.427,3.065,5.625c0.729,2.197,1.106,4.673,1.115,7.436c-0.009,2.361-0.214,4.395-0.606,6.116
		c-0.394,1.714-0.918,3.157-1.582,4.321c-0.664,1.172-1.41,2.115-2.223,2.837c-0.819,0.729-1.656,1.279-2.509,1.656
		c-0.86,0.377-1.673,0.631-2.451,0.77C525.854,304.836,525.172,304.901,524.59,304.894L524.59,304.894z M471.166,292.399v-8.658
		c0-1.484,0-2.755,0-3.804c0-1.05,0-1.936-0.008-2.648c0-0.706-0.008-1.304-0.008-1.779c-0.01-0.476-0.024-0.885-0.033-1.229
		c-0.018-0.336-0.033-0.664-0.049-0.967c-0.024-0.558-0.106-1.025-0.229-1.394c-0.132-0.377-0.345-0.68-0.64-0.901
		c-0.296-0.229-0.713-0.402-1.246-0.509c-0.205-0.049-0.492-0.09-0.845-0.115c-0.36-0.024-0.714-0.033-1.074-0.033
		c-0.271,0-0.477-0.033-0.623-0.09c-0.14-0.066-0.213-0.189-0.213-0.353c0-0.173,0.09-0.287,0.263-0.353
		c0.18-0.065,0.45-0.098,0.819-0.09c0.655,0,1.328,0.008,2.009,0.024c0.681,0.008,1.328,0.033,1.951,0.049
		c0.623,0.016,1.173,0.032,1.656,0.049c0.482,0.017,0.86,0.025,1.122,0.025c0.428,0,0.951-0.008,1.574-0.025
		s1.271-0.033,1.951-0.049c0.681-0.016,1.32-0.041,1.919-0.049c0.606-0.016,1.099-0.024,1.492-0.024
		c1.041-0.008,2.082,0.041,3.132,0.139c1.058,0.105,2.082,0.312,3.082,0.615c1.001,0.311,1.944,0.762,2.837,1.36
		c0.354,0.238,0.722,0.566,1.107,0.984c0.385,0.417,0.746,0.918,1.082,1.5s0.614,1.229,0.828,1.943
		c0.213,0.713,0.318,1.484,0.327,2.313c0.009,1.205-0.181,2.402-0.583,3.575c-0.393,1.181-1.064,2.378-2.017,3.607
		c-0.95,1.222-2.246,2.501-3.894,3.837c2.181,2.755,4.14,5.223,5.895,7.387c1.746,2.173,3.337,4.018,4.78,5.551
		c0.688,0.705,1.328,1.279,1.918,1.705c0.591,0.426,1.123,0.754,1.591,0.984c0.476,0.221,0.877,0.377,1.214,0.476
		c0.335,0.09,0.598,0.148,0.787,0.18c0.27,0.049,0.516,0.09,0.746,0.115c0.221,0.024,0.435,0.032,0.631,0.032
		s0.344,0.033,0.442,0.106c0.099,0.065,0.146,0.165,0.146,0.287c0,0.189-0.082,0.32-0.246,0.394
		c-0.163,0.065-0.394,0.099-0.688,0.099H499.4c-0.909,0-1.673-0.033-2.304-0.09c-0.632-0.058-1.173-0.156-1.641-0.295
		c-0.459-0.14-0.901-0.32-1.319-0.55c-0.697-0.377-1.386-0.886-2.074-1.533s-1.409-1.451-2.164-2.395
		c-0.755-0.943-1.591-2.042-2.502-3.304c-0.49-0.689-0.998-1.386-1.5-2.099c-0.5-0.713-0.982-1.394-1.435-2.033
		c-0.45-0.639-0.845-1.197-1.181-1.664c-0.336-0.468-0.59-0.804-0.756-0.992c-0.121-0.147-0.254-0.238-0.4-0.287
		c-0.147-0.041-0.313-0.066-0.483-0.057l-4.279-0.099c-0.122,0-0.222,0.025-0.286,0.082c-0.074,0.066-0.107,0.165-0.107,0.313v0.688
		c0,1.533,0,2.968,0.009,4.304s0.033,2.534,0.065,3.591c0.033,1.058,0.09,1.935,0.172,2.632c0.041,0.475,0.123,0.91,0.238,1.295
		c0.113,0.377,0.295,0.697,0.557,0.935c0.264,0.246,0.641,0.41,1.124,0.475c0.254,0.033,0.524,0.065,0.82,0.099
		c0.295,0.024,0.59,0.049,0.868,0.074c0.278,0.017,0.517,0.024,0.722,0.024c0.197,0,0.345,0.033,0.443,0.106
		c0.098,0.065,0.146,0.165,0.146,0.287c0,0.172-0.082,0.295-0.254,0.377c-0.165,0.074-0.41,0.115-0.729,0.115
		c-0.723,0-1.468-0.008-2.229-0.024c-0.763-0.017-1.492-0.032-2.181-0.049c-0.689-0.017-1.279-0.032-1.779-0.049
		s-0.846-0.024-1.041-0.024c-0.238,0-0.591,0.008-1.059,0.024c-0.459,0.017-0.977,0.032-1.559,0.049
		c-0.574,0.017-1.154,0.033-1.746,0.049c-0.59,0.017-1.14,0.024-1.64,0.024c-0.32,0-0.565-0.041-0.73-0.115
		c-0.172-0.082-0.254-0.205-0.254-0.377c0-0.123,0.059-0.222,0.172-0.287c0.124-0.074,0.329-0.106,0.616-0.106
		c0.368,0,0.704-0.024,0.999-0.058c0.296-0.041,0.55-0.09,0.771-0.139c0.327-0.065,0.582-0.229,0.762-0.475
		c0.188-0.238,0.328-0.558,0.427-0.935c0.1-0.385,0.182-0.82,0.238-1.295c0.081-0.697,0.139-1.575,0.172-2.632
		c0.033-1.057,0.058-2.247,0.065-3.575C471.166,295.333,471.166,293.916,471.166,292.399L471.166,292.399z M476.971,272.672v14.955
		c0,0.262,0.025,0.459,0.092,0.59c0.065,0.131,0.181,0.229,0.353,0.295c0.353,0.114,0.729,0.205,1.156,0.279
		c0.418,0.074,0.853,0.13,1.295,0.164c0.441,0.033,0.877,0.049,1.287,0.049c0.647,0,1.173-0.025,1.582-0.074
		c0.409-0.049,0.764-0.139,1.05-0.263c0.287-0.123,0.574-0.287,0.861-0.5c0.5-0.361,0.967-0.852,1.408-1.5
		c0.437-0.64,0.796-1.443,1.066-2.41c0.278-0.976,0.418-2.132,0.427-3.468c-0.009-1.394-0.173-2.599-0.5-3.616
		c-0.328-1.025-0.771-1.877-1.313-2.574c-0.55-0.689-1.147-1.246-1.813-1.656c-0.664-0.41-1.328-0.714-2.009-0.894
		c-0.672-0.18-1.304-0.271-1.895-0.262c-0.614,0-1.14,0.008-1.582,0.041c-0.436,0.032-0.779,0.082-1.024,0.156
		c-0.172,0.049-0.287,0.123-0.353,0.229C476.996,272.328,476.971,272.476,476.971,272.672L476.971,272.672z M438.945,292.399
		c0,1.517,0,2.935-0.01,4.271c-0.008,1.328-0.031,2.518-0.064,3.575c-0.032,1.058-0.09,1.935-0.172,2.632
		c-0.059,0.475-0.141,0.91-0.237,1.295c-0.099,0.377-0.238,0.697-0.427,0.935c-0.18,0.246-0.436,0.41-0.762,0.475
		c-0.223,0.049-0.478,0.099-0.771,0.139c-0.295,0.033-0.631,0.058-1,0.058c-0.287,0-0.492,0.033-0.615,0.105
		c-0.113,0.065-0.172,0.165-0.172,0.287c0,0.172,0.082,0.295,0.254,0.377c0.164,0.074,0.41,0.115,0.729,0.115
		c0.5,0,1.05-0.008,1.641-0.023c0.59-0.018,1.181-0.033,1.771-0.05s1.132-0.032,1.623-0.049c0.482-0.017,0.878-0.024,1.163-0.024
		c0.436,0,1.043,0.017,1.829,0.041c0.778,0.024,1.664,0.041,2.664,0.065c0.992,0.024,2.042,0.041,3.132,0.041
		c0.279,0,0.502-0.041,0.674-0.115c0.172-0.082,0.254-0.205,0.262-0.377c0-0.123-0.065-0.222-0.188-0.287
		c-0.132-0.074-0.328-0.105-0.6-0.105c-0.246,0-0.523-0.008-0.827-0.024c-0.295-0.025-0.591-0.049-0.886-0.074
		c-0.295-0.033-0.558-0.065-0.796-0.099c-0.483-0.065-0.86-0.229-1.123-0.467c-0.262-0.246-0.442-0.558-0.558-0.935
		c-0.114-0.369-0.196-0.795-0.237-1.255c-0.082-0.713-0.14-1.598-0.173-2.664c-0.032-1.066-0.058-2.263-0.064-3.591
		c-0.009-1.336-0.009-2.754-0.009-4.271v-19.677c0-0.271,0.033-0.484,0.106-0.631c0.064-0.156,0.163-0.254,0.286-0.303
		c0.229-0.074,0.51-0.124,0.854-0.156c0.336-0.032,0.688-0.041,1.065-0.041c0.386-0.008,0.845,0.041,1.387,0.131
		c0.541,0.099,1.113,0.287,1.721,0.566c0.615,0.279,1.214,0.688,1.813,1.221c0.682,0.624,1.223,1.271,1.614,1.96
		c0.396,0.688,0.689,1.37,0.869,2.042c0.189,0.672,0.304,1.303,0.354,1.885c0.049,0.583,0.072,1.083,0.064,1.492
		c-0.009,1.255-0.229,2.386-0.64,3.386c-0.419,1-0.959,1.854-1.624,2.55c-0.663,0.706-1.377,1.247-2.141,1.616
		c-0.754,0.377-1.482,0.565-2.188,0.565c-0.507,0-0.868,0.041-1.073,0.123c-0.213,0.082-0.312,0.222-0.304,0.418
		c0.009,0.164,0.074,0.279,0.205,0.328c0.123,0.058,0.255,0.099,0.386,0.115c0.14,0.023,0.313,0.041,0.517,0.041
		c0.214,0.009,0.386,0.009,0.518,0.009c1.755-0.009,3.369-0.304,4.837-0.877c1.467-0.582,2.747-1.394,3.837-2.46
		c1.082-1.057,1.918-2.312,2.519-3.763c0.599-1.451,0.9-3.05,0.909-4.804c-0.009-0.877-0.14-1.689-0.394-2.451
		c-0.255-0.754-0.574-1.427-0.943-2.009c-0.377-0.582-0.754-1.05-1.123-1.394c-0.188-0.197-0.492-0.442-0.895-0.754
		c-0.409-0.304-0.967-0.615-1.672-0.927c-0.697-0.312-1.592-0.574-2.674-0.787c-1.073-0.213-2.377-0.328-3.91-0.336
		c-0.763,0-1.565,0.016-2.401,0.041c-0.845,0.017-1.673,0.042-2.485,0.065c-0.818,0.025-1.564,0.042-2.246,0.042
		c-0.476,0-1.099-0.016-1.868-0.042c-0.771-0.024-1.615-0.048-2.525-0.065c-0.91-0.024-1.804-0.041-2.688-0.041
		c-0.369-0.008-0.641,0.024-0.82,0.09c-0.172,0.066-0.263,0.18-0.263,0.353c0,0.164,0.073,0.287,0.214,0.353
		c0.146,0.057,0.353,0.09,0.623,0.09c0.359,0,0.713,0.008,1.073,0.033c0.354,0.025,0.641,0.065,0.845,0.115
		c0.532,0.106,0.95,0.279,1.246,0.509c0.295,0.221,0.509,0.524,0.64,0.901c0.123,0.369,0.205,0.836,0.229,1.394
		c0.018,0.303,0.032,0.631,0.051,0.967c0.008,0.345,0.023,0.754,0.031,1.229c0,0.477,0.009,1.074,0.009,1.779
		c0.009,0.713,0.009,1.598,0.009,2.648c0,1.049,0,2.32,0,3.804v8.655H438.945z M400.034,307.354c0.869,0,1.755-0.058,2.641-0.172
		c0.885-0.123,1.771-0.328,2.641-0.623c0.867-0.295,1.722-0.706,2.54-1.223c1.174-0.779,2.101-1.647,2.771-2.615
		c0.681-0.959,1.155-1.952,1.443-2.968c0.277-1.025,0.418-2.017,0.41-2.976c0.008-1.165-0.141-2.263-0.428-3.304
		s-0.746-2.05-1.378-3.042c-0.631-0.993-1.459-1.992-2.492-3.009c-1.032-1.017-2.286-2.074-3.771-3.189l-1.377-1.033
		c-1.354-1.025-2.402-1.927-3.165-2.714c-0.762-0.788-1.296-1.525-1.607-2.214c-0.303-0.696-0.45-1.418-0.441-2.156
		c0.008-0.993,0.237-1.87,0.705-2.624c0.468-0.763,1.14-1.353,2.018-1.787c0.869-0.427,1.91-0.648,3.131-0.656
		c1.06,0.008,1.943,0.147,2.648,0.418c0.706,0.262,1.271,0.582,1.705,0.951s0.771,0.713,1.009,1.042
		c0.345,0.434,0.605,0.869,0.796,1.312c0.18,0.443,0.312,0.836,0.385,1.181c0.065,0.344,0.107,0.599,0.1,0.754
		c0,0.295,0.041,0.517,0.114,0.664c0.081,0.148,0.204,0.222,0.377,0.222c0.196,0.008,0.336-0.107,0.418-0.336
		c0.082-0.222,0.123-0.607,0.123-1.139c0-1.271,0.018-2.304,0.05-3.099c0.032-0.788,0.064-1.402,0.099-1.845
		c0.033-0.435,0.049-0.754,0.049-0.959c0-0.173-0.058-0.303-0.18-0.385c-0.115-0.091-0.287-0.156-0.509-0.205
		c-0.633-0.188-1.483-0.369-2.551-0.549c-1.073-0.181-2.401-0.271-3.991-0.287c-1.715,0.009-3.271,0.238-4.657,0.689
		c-1.396,0.459-2.591,1.099-3.591,1.927c-1,0.836-1.764,1.812-2.305,2.943c-0.532,1.131-0.804,2.377-0.812,3.738
		c-0.008,1.32,0.221,2.608,0.688,3.854c0.468,1.246,1.23,2.509,2.296,3.788c1.074,1.278,2.5,2.615,4.297,4.017l2.262,1.771
		c1.018,0.794,1.837,1.541,2.477,2.238c0.641,0.696,1.123,1.361,1.469,1.992c0.336,0.631,0.573,1.247,0.695,1.845
		c0.132,0.599,0.189,1.197,0.182,1.795c0,0.664-0.132,1.32-0.41,1.976c-0.271,0.656-0.681,1.262-1.222,1.804
		c-0.55,0.549-1.237,0.992-2.059,1.319c-0.827,0.328-1.796,0.5-2.902,0.508c-1.023,0.008-2.009-0.156-2.935-0.476
		c-0.936-0.328-1.763-0.853-2.478-1.591c-0.713-0.729-1.254-1.697-1.622-2.902c-0.123-0.426-0.229-0.869-0.313-1.328
		c-0.082-0.451-0.131-0.845-0.131-1.181c0.008-0.205-0.016-0.394-0.082-0.566c-0.059-0.172-0.197-0.262-0.41-0.27
		c-0.196,0.008-0.335,0.13-0.426,0.36c-0.091,0.238-0.141,0.541-0.165,0.918c-0.017,0.205-0.032,0.524-0.058,0.959
		c-0.024,0.435-0.058,0.951-0.082,1.541c-0.033,0.599-0.058,1.23-0.074,1.911c-0.025,0.672-0.033,1.352-0.033,2.033
		c0,0.353,0.016,0.632,0.064,0.836c0.051,0.205,0.141,0.369,0.279,0.492c0.131,0.124,0.328,0.238,0.591,0.345
		c1.05,0.459,2.147,0.795,3.313,0.99C397.328,307.264,398.616,307.361,400.034,307.354L400.034,307.354z M364.468,292.399
		c0,1.517,0,2.935-0.008,4.271c-0.008,1.328-0.033,2.518-0.066,3.575c-0.031,1.058-0.09,1.935-0.172,2.632
		c-0.058,0.475-0.139,0.91-0.237,1.287c-0.1,0.385-0.237,0.697-0.427,0.943c-0.18,0.246-0.435,0.41-0.762,0.475
		c-0.221,0.049-0.476,0.099-0.771,0.139c-0.295,0.033-0.632,0.058-1,0.058c-0.287,0-0.492,0.033-0.615,0.106
		c-0.114,0.065-0.172,0.165-0.172,0.287c0,0.172,0.082,0.295,0.254,0.377c0.165,0.074,0.41,0.115,0.729,0.115
		c0.5-0.008,1.051-0.023,1.641-0.049c0.599-0.033,1.181-0.049,1.754-0.049c0.599-0.025,1.147-0.043,1.64-0.043
		c0.5-0.008,0.885-0.008,1.164-0.008c0.729,0,1.501,0.008,2.32,0.033s1.747,0.066,2.796,0.115c1.049,0.023,2.271,0.058,3.665,0.09
		c1.394,0.033,3.009,0.059,4.845,0.059c0.616,0.008,1.1-0.009,1.443-0.05s0.605-0.146,0.787-0.328
		c0.181-0.18,0.319-0.484,0.427-0.901c0.064-0.254,0.131-0.632,0.205-1.106c0.074-0.484,0.139-1.009,0.205-1.567
		c0.065-0.565,0.123-1.098,0.164-1.598c0.042-0.5,0.065-0.894,0.065-1.188c0.008-0.254-0.008-0.459-0.049-0.624
		c-0.041-0.172-0.156-0.254-0.344-0.262c-0.165,0-0.287,0.049-0.361,0.164c-0.074,0.114-0.139,0.303-0.181,0.574
		c-0.164,1-0.418,1.779-0.754,2.353c-0.346,0.573-0.828,1-1.459,1.287c-0.436,0.197-0.927,0.328-1.484,0.418
		c-0.549,0.082-1.106,0.13-1.656,0.147c-0.55,0.025-1.05,0.025-1.483,0.025c-1.246,0.008-2.254-0.05-3.025-0.164
		c-0.77-0.123-1.361-0.328-1.771-0.631c-0.41-0.295-0.688-0.722-0.853-1.263c-0.156-0.541-0.238-1.23-0.254-2.074
		c-0.008-0.295-0.017-0.688-0.017-1.181c-0.009-0.492-0.009-1.041-0.009-1.64c0.009-0.598,0.009-1.197,0.009-1.812
		c0.008-0.607,0.008-1.172,0.008-1.697c0.008-0.524,0.008-0.951,0.008-1.295v-3.886c0-0.148,0.017-0.271,0.058-0.361
		c0.041-0.082,0.115-0.131,0.237-0.131c0.246,0,0.607,0,1.09,0.008c0.484,0,1.018,0.008,1.607,0.017
		c0.598,0.008,1.18,0.016,1.763,0.024c0.582,0.016,1.107,0.024,1.559,0.041c0.45,0.017,0.771,0.033,0.967,0.058
		c0.605,0.065,1.091,0.189,1.468,0.369c0.377,0.172,0.664,0.394,0.869,0.656c0.205,0.263,0.344,0.566,0.418,0.894
		c0.074,0.32,0.115,0.64,0.14,0.943c0.018,0.303,0.041,0.583,0.058,0.828c0,0.123,0.032,0.229,0.09,0.312
		c0.065,0.083,0.181,0.131,0.353,0.131c0.147-0.008,0.246-0.058,0.313-0.156c0.064-0.098,0.099-0.221,0.115-0.36
		c0.016-0.147,0.016-0.287,0.016-0.418c0-0.091,0.008-0.271,0.024-0.525c0.018-0.254,0.033-0.549,0.058-0.886
		c0.017-0.335,0.042-0.672,0.065-1.008c0.017-0.329,0.033-0.624,0.05-0.877c0.064-0.828,0.131-1.492,0.188-1.984
		c0.059-0.492,0.107-0.861,0.148-1.099c0.041-0.246,0.058-0.418,0.058-0.508c0-0.147-0.033-0.246-0.099-0.312
		c-0.065-0.058-0.147-0.082-0.246-0.082c-0.115,0-0.238,0.058-0.354,0.172c-0.123,0.115-0.263,0.271-0.435,0.467
		c-0.222,0.238-0.517,0.41-0.902,0.517c-0.386,0.106-0.869,0.18-1.459,0.222c-0.237,0.016-0.624,0.032-1.147,0.048
		c-0.525,0.008-1.131,0.025-1.795,0.025c-0.673,0.008-1.346,0.016-2.018,0.016c-0.665,0.008-1.263,0.008-1.788,0.008
		c-0.517,0-0.894,0-1.123,0c-0.146,0-0.236-0.05-0.287-0.14c-0.041-0.098-0.065-0.229-0.058-0.401v-12.446
		c0-0.173,0.025-0.295,0.083-0.377c0.048-0.082,0.139-0.115,0.262-0.115c0.205,0,0.55,0,1.025,0.008
		c0.475,0.008,1.017,0.016,1.615,0.033c0.605,0.008,1.213,0.024,1.812,0.041c0.6,0.016,1.124,0.033,1.583,0.058
		c0.458,0.016,0.771,0.032,0.951,0.057c0.812,0.098,1.435,0.229,1.869,0.394c0.442,0.164,0.762,0.361,0.967,0.59
		c0.205,0.229,0.361,0.492,0.46,0.787c0.082,0.196,0.147,0.418,0.188,0.648c0.043,0.222,0.074,0.443,0.082,0.639
		c0.018,0.205,0.025,0.361,0.025,0.484c0,0.222,0.033,0.393,0.09,0.508c0.065,0.115,0.181,0.18,0.354,0.18
		c0.172-0.008,0.287-0.065,0.359-0.18c0.065-0.115,0.115-0.229,0.131-0.361c0.025-0.156,0.051-0.385,0.074-0.689
		c0.025-0.303,0.049-0.623,0.065-0.976c0.023-0.344,0.042-0.664,0.065-0.951c0.017-0.288,0.033-0.5,0.041-0.631
		c0.05-0.746,0.106-1.328,0.164-1.763c0.065-0.427,0.114-0.746,0.164-0.959c0.042-0.213,0.066-0.369,0.066-0.476
		c0-0.123-0.016-0.229-0.059-0.312c-0.041-0.082-0.114-0.131-0.237-0.131c-0.123,0.009-0.254,0.033-0.394,0.083
		c-0.14,0.049-0.271,0.082-0.394,0.114c-0.205,0.049-0.483,0.099-0.853,0.148c-0.368,0.049-0.787,0.098-1.263,0.147
		c-0.164,0.008-0.542,0.016-1.123,0.016c-0.583,0.008-1.295,0.017-2.132,0.017c-0.836,0.008-1.721,0.008-2.656,0.008
		c-0.934,0-1.836,0.008-2.705,0.008s-1.632,0-2.288,0c-0.655,0-1.114,0-1.394,0c-0.354,0-0.795-0.008-1.329-0.033
		c-0.532-0.016-1.123-0.041-1.771-0.065c-0.624,0-1.271-0.008-1.952-0.024c-0.688-0.016-1.361-0.024-2.033-0.024
		c-0.369,0-0.64,0.024-0.82,0.09c-0.172,0.066-0.262,0.18-0.262,0.353c0,0.164,0.074,0.287,0.213,0.353
		c0.148,0.057,0.354,0.09,0.623,0.09c0.361,0,0.713,0.008,1.074,0.033c0.353,0.025,0.64,0.065,0.844,0.115
		c0.533,0.115,0.951,0.279,1.246,0.509c0.295,0.229,0.508,0.524,0.64,0.901c0.123,0.377,0.205,0.836,0.229,1.394
		c0.017,0.303,0.033,0.631,0.049,0.967c0.008,0.345,0.025,0.754,0.033,1.23c0,0.476,0.008,1.074,0.008,1.787
		c0.008,0.705,0.008,1.59,0.008,2.641c0,1.049,0,2.32,0,3.804v8.656H364.468z M310.11,301.745c-0.074,0.566-0.189,1.132-0.328,1.689
		c-0.141,0.55-0.345,1.033-0.607,1.435c-0.271,0.393-0.631,0.656-1.082,0.762c-0.36,0.074-0.647,0.115-0.869,0.131
		c-0.213,0.016-0.418,0.016-0.606,0.016c-0.246,0-0.442,0.024-0.574,0.082c-0.14,0.049-0.213,0.14-0.213,0.263
		c0.008,0.213,0.09,0.361,0.263,0.436c0.164,0.073,0.369,0.114,0.623,0.105c0.402,0,0.828-0.008,1.296-0.023
		c0.459-0.018,0.926-0.033,1.377-0.05c0.459-0.017,0.877-0.032,1.264-0.049c0.386-0.017,0.696-0.024,0.935-0.024
		c0.303,0,0.73,0.017,1.271,0.041c0.55,0.024,1.155,0.041,1.836,0.065c0.672,0.024,1.36,0.041,2.058,0.041
		c0.369,0.008,0.664-0.033,0.869-0.106c0.205-0.073,0.311-0.221,0.311-0.435c-0.008-0.123-0.082-0.213-0.221-0.263
		c-0.139-0.058-0.313-0.082-0.517-0.082c-0.246,0-0.541-0.016-0.886-0.049c-0.345-0.033-0.737-0.098-1.181-0.196
		c-0.427-0.09-0.779-0.263-1.049-0.508c-0.279-0.247-0.418-0.607-0.426-1.066c0-0.385,0.016-0.754,0.041-1.115
		c0.023-0.361,0.057-0.762,0.105-1.197l2.558-19.579h0.196c0.354,0.746,0.73,1.566,1.148,2.452c0.418,0.885,0.844,1.787,1.27,2.688
		c0.427,0.902,0.828,1.755,1.206,2.55c0.369,0.803,0.688,1.484,0.959,2.05c0.262,0.573,0.442,0.967,0.533,1.181
		c0.106,0.237,0.287,0.623,0.541,1.147c0.263,0.525,0.566,1.148,0.927,1.853c0.361,0.714,0.738,1.46,1.14,2.255
		c0.401,0.787,0.803,1.557,1.188,2.32c0.395,0.755,0.746,1.452,1.075,2.074c0.328,0.624,0.59,1.132,0.787,1.517
		c0.386,0.746,0.722,1.344,0.992,1.779c0.271,0.443,0.517,0.672,0.729,0.68c0.14,0.009,0.279-0.057,0.418-0.196
		c0.14-0.147,0.313-0.418,0.525-0.819c0.213-0.394,0.508-0.977,0.877-1.739l10.724-22.333h0.197l2.952,21.645
		c0.098,0.688,0.114,1.197,0.064,1.542c-0.057,0.336-0.155,0.533-0.312,0.573c-0.172,0.074-0.303,0.148-0.401,0.239
		c-0.09,0.082-0.139,0.18-0.139,0.303c-0.008,0.147,0.09,0.262,0.287,0.344c0.206,0.082,0.591,0.147,1.14,0.197
		c0.336,0.024,0.779,0.049,1.336,0.074s1.172,0.049,1.854,0.066c0.68,0.024,1.377,0.041,2.083,0.065
		c0.704,0.017,1.377,0.033,2.017,0.049c0.64,0.008,1.197,0.025,1.673,0.033c0.467,0,0.813,0.008,1.025,0.008
		c0.352,0,0.655-0.041,0.901-0.123c0.238-0.083,0.369-0.222,0.377-0.418c0-0.14-0.082-0.238-0.229-0.279
		c-0.14-0.049-0.328-0.066-0.558-0.066c-0.32,0.008-0.73-0.016-1.229-0.082c-0.5-0.057-1.107-0.197-1.82-0.41
		c-0.483-0.139-0.877-0.41-1.181-0.795c-0.303-0.386-0.549-0.926-0.738-1.607c-0.18-0.68-0.353-1.533-0.491-2.566l-4.477-30.4
		c-0.074-0.517-0.181-0.902-0.329-1.148c-0.146-0.254-0.335-0.377-0.557-0.377c-0.213,0-0.402,0.098-0.559,0.295
		c-0.155,0.197-0.336,0.492-0.523,0.885l-13.38,28.089l-13.431-27.744c-0.212-0.418-0.393-0.746-0.541-0.968
		c-0.146-0.221-0.286-0.369-0.409-0.451c-0.123-0.074-0.246-0.115-0.377-0.107c-0.196,0-0.369,0.107-0.509,0.329
		c-0.146,0.212-0.254,0.532-0.328,0.95L310.11,301.745L310.11,301.745z M286.711,293.825h-10.97c-0.124,0-0.213,0.024-0.279,0.082
		c-0.066,0.065-0.115,0.164-0.164,0.312l-2.656,7.035c-0.246,0.623-0.427,1.205-0.549,1.738c-0.123,0.533-0.188,0.959-0.188,1.263
		c-0.017,0.451,0.123,0.82,0.41,1.099c0.286,0.279,0.812,0.418,1.558,0.426h0.738c0.287,0,0.483,0.024,0.59,0.09
		c0.106,0.058,0.156,0.155,0.147,0.303c0,0.189-0.074,0.32-0.213,0.394c-0.148,0.065-0.353,0.099-0.624,0.099
		c-0.533,0-1.099-0.017-1.713-0.041c-0.607-0.024-1.213-0.041-1.82-0.065c-0.606-0.024-1.164-0.041-1.68-0.041
		c-0.14,0-0.402,0.008-0.779,0.024c-0.369,0.017-0.828,0.033-1.369,0.049c-0.533,0.017-1.115,0.033-1.746,0.05
		c-0.632,0.016-1.263,0.023-1.911,0.023c-0.319,0-0.558-0.033-0.705-0.098c-0.156-0.074-0.229-0.205-0.229-0.395
		c0-0.148,0.049-0.246,0.147-0.303c0.099-0.066,0.246-0.09,0.442-0.09c0.23,0,0.492-0.008,0.779-0.032
		c0.287-0.017,0.541-0.042,0.746-0.066c0.746-0.099,1.37-0.345,1.869-0.729c0.5-0.385,0.935-0.894,1.295-1.525
		c0.361-0.623,0.697-1.353,1.017-2.172l12.347-30.893c0.287-0.706,0.524-1.214,0.729-1.517c0.197-0.312,0.41-0.458,0.648-0.451
		c0.213-0.008,0.41,0.115,0.599,0.361c0.18,0.246,0.393,0.656,0.631,1.213c0.156,0.345,0.394,0.936,0.738,1.771
		c0.336,0.828,0.747,1.844,1.222,3.042c0.484,1.205,1.009,2.525,1.591,3.977c0.573,1.451,1.181,2.959,1.812,4.542
		c0.632,1.583,1.263,3.173,1.902,4.772c0.64,1.599,1.263,3.14,1.869,4.641c0.599,1.492,1.165,2.877,1.689,4.156
		c0.525,1.279,0.984,2.386,1.378,3.329c0.467,1.091,0.91,1.976,1.32,2.656c0.41,0.681,0.795,1.206,1.156,1.583
		c0.361,0.369,0.697,0.639,1,0.803c0.312,0.164,0.598,0.279,0.853,0.344c0.369,0.074,0.738,0.123,1.09,0.156
		c0.354,0.025,0.681,0.041,0.977,0.041c0.196-0.008,0.352,0.017,0.467,0.066c0.114,0.049,0.172,0.164,0.172,0.328
		c0.008,0.131-0.058,0.229-0.18,0.303c-0.131,0.075-0.361,0.124-0.689,0.148c-0.328,0.024-0.795,0.041-1.394,0.041
		c-0.599,0-1.377,0-2.321-0.008c-0.951,0-2.024-0.009-3.213-0.024c-1.189-0.008-2.444-0.033-3.764-0.064
		c-0.451-0.018-0.803-0.051-1.066-0.091c-0.271-0.041-0.402-0.139-0.41-0.303c0-0.147,0.049-0.246,0.165-0.312
		c0.106-0.065,0.279-0.106,0.524-0.131c0.188-0.049,0.336-0.18,0.442-0.377c0.115-0.205,0.115-0.451,0-0.754l-3.936-10.428
		c-0.049-0.124-0.114-0.213-0.188-0.263C286.932,293.85,286.833,293.825,286.711,293.825L286.711,293.825z M276.724,291.366h9.052
		c0.123,0,0.197-0.033,0.237-0.091c0.033-0.057,0.033-0.13,0.008-0.204l-4.427-12.151c-0.024-0.107-0.049-0.205-0.082-0.295
		c-0.041-0.09-0.09-0.139-0.164-0.147c-0.074,0.008-0.131,0.057-0.18,0.147s-0.091,0.188-0.115,0.295l-4.525,12.101
		c-0.025,0.099-0.025,0.18,0.008,0.246C276.561,291.333,276.626,291.366,276.724,291.366z"/>
</g>
<g id="Layer_3">
	<path fill="#003660" d="M407.336,336.303c0.076,0,0.137,0.016,0.188,0.051c0.046,0.03,0.086,0.086,0.115,0.162l2.416,6.402
		c0.07,0.188,0.07,0.337,0,0.463c-0.064,0.121-0.155,0.202-0.271,0.231c-0.151,0.016-0.257,0.04-0.322,0.081
		c-0.07,0.039-0.101,0.101-0.101,0.19c0.005,0.101,0.085,0.161,0.252,0.187c0.16,0.025,0.377,0.046,0.653,0.057
		c0.811,0.02,1.58,0.034,2.312,0.04c0.729,0.011,1.39,0.015,1.974,0.015c0.578,0.006,1.058,0.006,1.424,0.006
		c0.368,0,0.655-0.01,0.856-0.025s0.343-0.045,0.423-0.091c0.075-0.046,0.115-0.105,0.11-0.187c0-0.101-0.035-0.171-0.105-0.201
		c-0.07-0.029-0.166-0.045-0.287-0.041c-0.181,0-0.383-0.01-0.599-0.023c-0.217-0.021-0.443-0.051-0.67-0.096
		c-0.156-0.041-0.332-0.111-0.523-0.213c-0.187-0.101-0.393-0.267-0.613-0.492c-0.223-0.231-0.458-0.555-0.71-0.973
		s-0.523-0.961-0.812-1.631c-0.241-0.578-0.522-1.259-0.846-2.044c-0.323-0.784-0.669-1.637-1.037-2.553
		c-0.372-0.921-0.755-1.867-1.147-2.851c-0.393-0.98-0.779-1.957-1.168-2.93c-0.388-0.972-0.761-1.896-1.111-2.788
		c-0.357-0.892-0.681-1.702-0.978-2.442c-0.292-0.734-0.544-1.358-0.751-1.867c-0.211-0.514-0.355-0.876-0.453-1.087
		c-0.146-0.343-0.275-0.595-0.387-0.745c-0.116-0.15-0.237-0.227-0.368-0.223c-0.146-0.004-0.276,0.086-0.396,0.277
		c-0.126,0.186-0.272,0.498-0.448,0.932l-7.581,18.97c-0.197,0.503-0.403,0.95-0.625,1.334c-0.222,0.388-0.489,0.7-0.795,0.937
		c-0.308,0.236-0.69,0.389-1.148,0.448c-0.126,0.015-0.282,0.029-0.458,0.04c-0.176,0.016-0.337,0.02-0.479,0.02
		c-0.121,0-0.211,0.017-0.272,0.057c-0.06,0.035-0.09,0.096-0.09,0.188c0,0.114,0.045,0.195,0.142,0.241
		c0.09,0.04,0.235,0.06,0.433,0.06c0.396,0,0.785-0.004,1.173-0.015c0.387-0.011,0.745-0.021,1.072-0.03
		c0.333-0.01,0.613-0.021,0.84-0.029c0.232-0.012,0.393-0.016,0.479-0.016c0.317,0,0.659,0.011,1.032,0.024
		c0.372,0.017,0.745,0.024,1.117,0.04c0.378,0.016,0.725,0.025,1.052,0.025c0.167,0,0.293-0.021,0.385-0.061
		c0.084-0.046,0.13-0.127,0.13-0.242c0.006-0.091-0.024-0.15-0.091-0.187c-0.065-0.04-0.187-0.056-0.361-0.056h-0.453
		c-0.458-0.006-0.781-0.09-0.957-0.263c-0.176-0.171-0.262-0.397-0.252-0.674c0-0.187,0.041-0.448,0.116-0.774
		c0.074-0.328,0.187-0.686,0.337-1.067l1.632-4.319c0.029-0.091,0.06-0.15,0.1-0.191c0.041-0.034,0.098-0.051,0.172-0.051H407.336
		L407.336,336.303z M560.658,338.841c0,0.166,0,0.402-0.005,0.716c0,0.312-0.011,0.668-0.021,1.065
		c-0.016,0.397-0.036,0.812-0.065,1.239c-0.024,0.441-0.115,0.814-0.263,1.111c-0.149,0.297-0.372,0.483-0.675,0.549
		c-0.136,0.03-0.292,0.062-0.473,0.086c-0.177,0.021-0.372,0.035-0.584,0.035c-0.166,0-0.287,0.021-0.367,0.064
		c-0.076,0.041-0.116,0.102-0.116,0.177c0,0.115,0.062,0.196,0.176,0.242c0.111,0.04,0.277,0.06,0.489,0.06
		c0.286,0,0.604-0.004,0.956-0.015c0.354-0.011,0.71-0.021,1.067-0.03c0.361-0.011,0.693-0.021,1.002-0.029
		c0.307-0.012,0.559-0.016,0.75-0.016c0.276,0,0.659,0.01,1.138,0.024c0.479,0.016,1.021,0.024,1.62,0.04
		c0.6,0.016,1.224,0.025,1.863,0.025c0.195,0,0.353-0.025,0.463-0.07c0.11-0.051,0.172-0.126,0.172-0.231
		c0-0.075-0.041-0.136-0.116-0.177c-0.08-0.045-0.201-0.064-0.367-0.064c-0.146,0-0.308-0.006-0.482-0.016
		c-0.183-0.016-0.362-0.029-0.544-0.045c-0.177-0.021-0.337-0.041-0.483-0.061c-0.297-0.041-0.538-0.143-0.709-0.293
		c-0.177-0.146-0.303-0.343-0.383-0.574c-0.081-0.235-0.132-0.504-0.146-0.795c-0.029-0.428-0.051-0.842-0.064-1.238
		c-0.01-0.396-0.021-0.755-0.021-1.066c-0.005-0.313-0.005-0.549-0.005-0.715v-2.479c-0.005-0.332,0.005-0.658,0.017-0.985
		c0.015-0.322,0.056-0.654,0.12-0.987c0.061-0.337,0.172-0.685,0.316-1.047c0.081-0.191,0.227-0.482,0.438-0.876
		c0.211-0.397,0.468-0.854,0.77-1.384c0.303-0.529,0.625-1.094,0.977-1.688c0.354-0.595,0.705-1.188,1.067-1.781
		c0.358-0.59,0.705-1.148,1.032-1.672c0.328-0.523,0.625-0.978,0.881-1.359c0.257-0.389,0.458-0.67,0.604-0.846
		c0.218-0.271,0.408-0.498,0.579-0.681c0.166-0.181,0.332-0.337,0.493-0.463c0.166-0.126,0.354-0.241,0.56-0.337
		c0.236-0.121,0.474-0.212,0.72-0.271c0.247-0.062,0.448-0.092,0.608-0.092c0.173,0,0.309-0.023,0.413-0.07
		c0.105-0.049,0.155-0.125,0.161-0.23c0-0.091-0.051-0.15-0.146-0.191c-0.097-0.035-0.231-0.049-0.397-0.049
		c-0.15,0-0.367,0.004-0.653,0.014c-0.282,0.006-0.595,0.021-0.928,0.031c-0.332,0.01-0.648,0.021-0.944,0.029
		c-0.298,0.01-0.529,0.016-0.705,0.016c-0.438-0.006-0.896-0.021-1.375-0.045c-0.479-0.025-0.966-0.041-1.466-0.045
		c-0.181-0.006-0.312,0.014-0.393,0.055s-0.121,0.11-0.121,0.217c0.005,0.086,0.062,0.15,0.172,0.195
		c0.105,0.041,0.231,0.076,0.372,0.105c0.252,0.066,0.423,0.167,0.508,0.309c0.092,0.141,0.133,0.291,0.126,0.447
		c0,0.196-0.028,0.424-0.095,0.686c-0.069,0.257-0.177,0.554-0.327,0.886c-0.065,0.142-0.187,0.378-0.367,0.715
		c-0.182,0.337-0.402,0.745-0.664,1.213c-0.258,0.47-0.539,0.974-0.836,1.507c-0.298,0.532-0.59,1.063-0.887,1.596
		c-0.298,0.527-0.568,1.021-0.82,1.475c-0.251,0.459-0.464,0.848-0.635,1.163c-0.166,0.317-0.276,0.528-0.321,0.64
		c-0.07-0.125-0.212-0.367-0.413-0.72c-0.206-0.353-0.453-0.78-0.74-1.284c-0.292-0.503-0.604-1.042-0.936-1.621
		c-0.334-0.578-0.665-1.156-0.997-1.735c-0.332-0.585-0.646-1.128-0.933-1.632c-0.287-0.508-0.527-0.94-0.725-1.299
		c-0.196-0.356-0.327-0.604-0.394-0.74c-0.104-0.211-0.196-0.407-0.262-0.584c-0.065-0.172-0.102-0.321-0.102-0.442
		c0-0.126,0.034-0.235,0.11-0.342c0.07-0.103,0.177-0.166,0.313-0.202c0.227-0.055,0.393-0.105,0.503-0.146
		c0.104-0.039,0.161-0.101,0.161-0.187c0-0.181-0.15-0.271-0.453-0.271c-0.453,0-0.892,0.01-1.299,0.023
		c-0.412,0.011-0.785,0.025-1.112,0.041c-0.332,0.016-0.604,0.025-0.821,0.025c-0.257,0-0.567-0.006-0.936-0.017
		c-0.373-0.01-0.75-0.021-1.138-0.03c-0.389-0.009-0.735-0.024-1.049-0.029c-0.312-0.01-0.537-0.016-0.685-0.016
		c-0.181,0-0.322,0.021-0.423,0.065c-0.102,0.045-0.15,0.116-0.15,0.206c0.005,0.101,0.05,0.177,0.137,0.217
		c0.085,0.035,0.19,0.055,0.315,0.055c0.188,0,0.394,0.041,0.625,0.116c0.228,0.075,0.443,0.166,0.646,0.276
		c0.292,0.167,0.613,0.438,0.977,0.806c0.357,0.373,0.725,0.841,1.107,1.399c0.155,0.227,0.361,0.544,0.618,0.951
		c0.253,0.402,0.544,0.86,0.86,1.375c0.317,0.514,0.649,1.047,0.992,1.605c0.337,0.555,0.675,1.104,0.997,1.636
		c0.322,0.533,0.619,1.022,0.886,1.472c0.268,0.447,0.488,0.814,0.654,1.105c0.172,0.298,0.271,0.479,0.308,0.555
		c0.131,0.281,0.251,0.568,0.357,0.852c0.101,0.281,0.186,0.604,0.246,0.966c0.061,0.368,0.091,0.815,0.091,1.354v2.478H560.658z
		 M533.531,335.428v-5.316c0-0.911,0-1.69,0-2.336c0-0.645,0-1.188-0.005-1.627c0-0.433-0.005-0.799-0.005-1.092
		c-0.006-0.291-0.016-0.544-0.021-0.755c-0.011-0.207-0.021-0.407-0.031-0.595c-0.015-0.342-0.063-0.629-0.141-0.855
		c-0.08-0.23-0.212-0.418-0.394-0.554c-0.182-0.141-0.438-0.247-0.766-0.313c-0.125-0.029-0.302-0.055-0.518-0.069
		c-0.223-0.015-0.438-0.021-0.66-0.021c-0.166,0-0.292-0.021-0.382-0.056c-0.086-0.04-0.133-0.116-0.133-0.217
		c0-0.104,0.057-0.177,0.161-0.218c0.111-0.039,0.277-0.06,0.504-0.055c0.402,0,0.815,0.006,1.233,0.016
		c0.418,0.005,0.815,0.021,1.197,0.029c0.384,0.011,0.721,0.021,1.018,0.03s0.529,0.017,0.689,0.017
		c0.262,0,0.584-0.006,0.967-0.017c0.383-0.01,0.78-0.021,1.198-0.03c0.418-0.009,0.811-0.024,1.178-0.029
		c0.373-0.01,0.675-0.016,0.917-0.016c0.639-0.005,1.278,0.024,1.923,0.086c0.649,0.064,1.278,0.19,1.893,0.377
		c0.614,0.191,1.193,0.469,1.742,0.836c0.217,0.146,0.442,0.348,0.681,0.604c0.235,0.256,0.458,0.563,0.664,0.921
		c0.206,0.358,0.378,0.755,0.509,1.192s0.195,0.911,0.201,1.42c0.005,0.739-0.11,1.476-0.357,2.194
		c-0.241,0.726-0.654,1.461-1.238,2.215c-0.584,0.75-1.379,1.535-2.392,2.355c1.34,1.692,2.542,3.208,3.62,4.536
		c1.072,1.335,2.049,2.467,2.935,3.408c0.423,0.434,0.815,0.786,1.178,1.048c0.363,0.262,0.69,0.463,0.978,0.604
		c0.292,0.137,0.539,0.231,0.745,0.293c0.207,0.056,0.368,0.09,0.483,0.11c0.165,0.03,0.316,0.056,0.457,0.07
		c0.138,0.015,0.269,0.021,0.389,0.021c0.121,0,0.212,0.021,0.271,0.064c0.062,0.041,0.09,0.102,0.09,0.177
		c0,0.115-0.05,0.196-0.149,0.242c-0.102,0.04-0.241,0.06-0.423,0.06h-2.87c-0.56,0-1.026-0.02-1.414-0.056
		c-0.389-0.034-0.722-0.095-1.007-0.181c-0.282-0.086-0.555-0.196-0.812-0.338c-0.428-0.231-0.851-0.543-1.272-0.94
		c-0.425-0.397-0.866-0.892-1.329-1.472c-0.464-0.578-0.978-1.254-1.536-2.027c-0.302-0.423-0.613-0.852-0.921-1.289
		s-0.604-0.855-0.881-1.249c-0.277-0.392-0.52-0.733-0.726-1.021c-0.207-0.287-0.361-0.493-0.464-0.609
		c-0.075-0.09-0.155-0.146-0.246-0.176c-0.091-0.025-0.19-0.041-0.298-0.035l-2.627-0.061c-0.076,0-0.137,0.015-0.177,0.051
		c-0.045,0.039-0.065,0.101-0.065,0.189v0.424c0,0.94,0,1.822,0.005,2.644s0.021,1.556,0.041,2.205
		c0.021,0.649,0.056,1.188,0.105,1.616c0.024,0.291,0.075,0.559,0.146,0.795c0.07,0.23,0.183,0.428,0.344,0.574
		c0.16,0.149,0.393,0.25,0.688,0.291c0.156,0.021,0.322,0.041,0.504,0.062c0.182,0.015,0.362,0.028,0.533,0.045
		c0.171,0.01,0.317,0.015,0.443,0.015c0.12,0,0.211,0.021,0.271,0.065c0.062,0.041,0.091,0.103,0.091,0.177
		c0,0.105-0.051,0.182-0.155,0.23c-0.102,0.046-0.252,0.07-0.448,0.07c-0.442,0-0.9-0.005-1.369-0.015
		c-0.468-0.011-0.916-0.021-1.339-0.03c-0.423-0.011-0.785-0.021-1.093-0.029c-0.309-0.012-0.52-0.016-0.64-0.016
		c-0.146,0-0.362,0.004-0.649,0.016c-0.281,0.01-0.6,0.02-0.956,0.029c-0.354,0.01-0.71,0.021-1.072,0.03s-0.7,0.015-1.007,0.015
		c-0.196,0-0.349-0.024-0.448-0.07c-0.104-0.049-0.156-0.125-0.156-0.23c0-0.074,0.036-0.136,0.106-0.177
		c0.075-0.045,0.201-0.065,0.377-0.065c0.227,0,0.433-0.015,0.614-0.035c0.182-0.023,0.338-0.055,0.474-0.084
		c0.201-0.041,0.357-0.143,0.468-0.293c0.116-0.146,0.201-0.343,0.263-0.574c0.061-0.235,0.11-0.504,0.146-0.795
		c0.05-0.428,0.085-0.967,0.105-1.615c0.02-0.649,0.034-1.381,0.04-2.195C533.531,337.229,533.531,336.357,533.531,335.428
		L533.531,335.428z M537.096,323.314v9.183c0,0.161,0.017,0.282,0.057,0.362s0.109,0.142,0.216,0.182
		c0.217,0.07,0.448,0.126,0.71,0.171c0.257,0.046,0.523,0.081,0.796,0.101c0.271,0.021,0.538,0.03,0.79,0.03
		c0.398,0,0.72-0.015,0.972-0.045s0.47-0.086,0.646-0.161c0.176-0.076,0.353-0.177,0.527-0.308c0.309-0.222,0.595-0.522,0.866-0.921
		c0.268-0.393,0.488-0.887,0.654-1.48c0.171-0.599,0.257-1.309,0.262-2.129c-0.005-0.855-0.104-1.596-0.307-2.221
		c-0.202-0.629-0.474-1.152-0.806-1.58c-0.339-0.423-0.705-0.766-1.112-1.018c-0.408-0.252-0.816-0.438-1.233-0.549
		c-0.413-0.111-0.801-0.166-1.163-0.162c-0.378,0-0.699,0.006-0.972,0.026c-0.267,0.021-0.479,0.05-0.63,0.095
		c-0.105,0.03-0.176,0.075-0.216,0.143C537.111,323.104,537.096,323.193,537.096,323.314L537.096,323.314z M514.06,344.609
		c1.535-0.006,2.955-0.211,4.249-0.625c1.295-0.412,2.446-0.99,3.47-1.741c1.017-0.755,1.883-1.642,2.598-2.673
		c0.71-1.027,1.254-2.16,1.626-3.403c0.372-1.238,0.564-2.552,0.564-3.94c-0.006-1.736-0.287-3.299-0.853-4.684
		c-0.559-1.389-1.369-2.577-2.432-3.559c-1.058-0.987-2.341-1.742-3.841-2.267s-3.191-0.784-5.08-0.79
		c-1.511,0.006-2.864,0.176-4.067,0.52c-1.208,0.337-2.271,0.805-3.19,1.404c-0.928,0.594-1.718,1.282-2.377,2.059
		c-0.659,0.779-1.197,1.611-1.62,2.492c-0.419,0.886-0.726,1.781-0.923,2.692c-0.2,0.916-0.297,1.808-0.297,2.673
		c0,0.896,0.102,1.809,0.303,2.733c0.201,0.927,0.509,1.828,0.927,2.714c0.418,0.882,0.957,1.707,1.604,2.479
		c0.655,0.77,1.432,1.449,2.332,2.033c0.9,0.588,1.934,1.047,3.097,1.373C511.313,344.434,512.615,344.604,514.06,344.609
		L514.06,344.609z M515.328,343.1c-1.162-0.005-2.225-0.195-3.191-0.568c-0.967-0.372-1.826-0.9-2.576-1.586
		c-0.757-0.686-1.392-1.495-1.908-2.432c-0.524-0.937-0.916-1.969-1.188-3.097c-0.271-1.128-0.407-2.321-0.407-3.584
		c0.006-1.501,0.15-2.789,0.438-3.872c0.287-1.082,0.68-1.982,1.178-2.708c0.498-0.72,1.063-1.294,1.697-1.712
		c0.639-0.423,1.309-0.725,2.014-0.9c0.699-0.182,1.404-0.268,2.104-0.263c1.248,0.006,2.406,0.257,3.474,0.761
		s2.003,1.233,2.81,2.186c0.806,0.951,1.43,2.104,1.883,3.453c0.447,1.35,0.68,2.869,0.685,4.565
		c-0.005,1.45-0.131,2.698-0.372,3.757c-0.241,1.051-0.563,1.938-0.972,2.652c-0.408,0.721-0.866,1.299-1.364,1.741
		c-0.504,0.448-1.017,0.786-1.541,1.017c-0.527,0.232-1.025,0.389-1.505,0.475C516.104,343.064,515.686,343.104,515.328,343.1
		L515.328,343.1z M489.694,344.609c0.534,0,1.077-0.035,1.621-0.105c0.544-0.076,1.088-0.201,1.62-0.383
		c0.533-0.182,1.059-0.434,1.562-0.75c0.72-0.479,1.289-1.012,1.702-1.605c0.418-0.589,0.709-1.197,0.886-1.822
		c0.171-0.629,0.257-1.238,0.252-1.827c0.005-0.716-0.086-1.39-0.262-2.028c-0.177-0.64-0.458-1.259-0.847-1.868
		c-0.388-0.608-0.896-1.223-1.53-1.848c-0.634-0.624-1.404-1.272-2.315-1.958l-0.846-0.635c-0.831-0.629-1.477-1.184-1.943-1.666
		c-0.467-0.483-0.796-0.938-0.985-1.359c-0.188-0.428-0.277-0.871-0.272-1.322c0.005-0.611,0.146-1.148,0.434-1.611
		c0.286-0.469,0.699-0.831,1.238-1.098c0.533-0.263,1.173-0.398,1.923-0.402c0.649,0.004,1.193,0.09,1.626,0.256
		c0.435,0.16,0.78,0.357,1.047,0.584c0.268,0.227,0.475,0.438,0.62,0.64c0.212,0.267,0.372,0.534,0.488,0.806
		c0.11,0.271,0.19,0.515,0.236,0.726c0.04,0.212,0.064,0.368,0.061,0.463c0,0.183,0.024,0.317,0.07,0.408
		c0.05,0.091,0.126,0.136,0.231,0.136c0.12,0.005,0.206-0.064,0.257-0.206c0.051-0.136,0.074-0.373,0.074-0.698
		c0-0.781,0.012-1.416,0.03-1.903c0.021-0.483,0.041-0.861,0.062-1.134c0.021-0.267,0.029-0.463,0.029-0.588
		c0-0.106-0.034-0.188-0.109-0.237c-0.071-0.056-0.177-0.097-0.313-0.125c-0.388-0.116-0.911-0.228-1.564-0.339
		c-0.66-0.109-1.477-0.166-2.452-0.176c-1.052,0.006-2.008,0.146-2.859,0.424c-0.854,0.28-1.591,0.675-2.205,1.183
		c-0.614,0.514-1.082,1.112-1.414,1.808c-0.327,0.694-0.493,1.461-0.499,2.295c-0.005,0.812,0.137,1.603,0.424,2.367
		c0.286,0.766,0.756,1.54,1.409,2.325c0.659,0.785,1.535,1.606,2.639,2.467l1.39,1.089c0.624,0.487,1.127,0.945,1.521,1.373
		c0.393,0.428,0.688,0.836,0.899,1.225c0.207,0.387,0.354,0.765,0.428,1.132c0.081,0.368,0.116,0.735,0.111,1.103
		c0,0.408-0.081,0.812-0.252,1.215c-0.166,0.401-0.418,0.774-0.75,1.106c-0.337,0.337-0.76,0.608-1.264,0.812
		c-0.509,0.201-1.104,0.307-1.782,0.312c-0.629,0.006-1.233-0.095-1.802-0.291c-0.574-0.202-1.082-0.524-1.521-0.978
		c-0.438-0.447-0.771-1.043-0.997-1.781c-0.075-0.264-0.141-0.534-0.19-0.816c-0.051-0.275-0.08-0.519-0.08-0.725
		c0.005-0.126-0.011-0.241-0.052-0.348c-0.034-0.105-0.119-0.16-0.252-0.166c-0.119,0.006-0.205,0.08-0.261,0.222
		c-0.056,0.146-0.086,0.333-0.102,0.563c-0.011,0.127-0.021,0.321-0.034,0.59c-0.016,0.267-0.036,0.584-0.051,0.945
		c-0.021,0.367-0.035,0.756-0.046,1.174c-0.016,0.412-0.021,0.829-0.021,1.248c0,0.217,0.01,0.387,0.04,0.514
		c0.03,0.125,0.086,0.227,0.171,0.302c0.081,0.076,0.201,0.146,0.363,0.212c0.644,0.282,1.318,0.488,2.033,0.609
		S488.824,344.614,489.694,344.609L489.694,344.609z M473.525,335.428c0,0.98,0,1.887-0.006,2.729
		c-0.005,0.836-0.021,1.58-0.041,2.234c-0.02,0.655-0.055,1.193-0.104,1.621c-0.04,0.438-0.121,0.785-0.246,1.037
		c-0.126,0.258-0.333,0.413-0.629,0.475c-0.137,0.029-0.293,0.061-0.474,0.084c-0.183,0.021-0.389,0.035-0.614,0.035
		c-0.176,0-0.302,0.021-0.378,0.065c-0.07,0.041-0.105,0.103-0.105,0.177c0,0.105,0.05,0.182,0.156,0.231
		c0.101,0.045,0.252,0.069,0.447,0.069c0.308,0,0.646-0.004,1.008-0.015s0.725-0.021,1.087-0.03
		c0.362-0.011,0.695-0.021,0.997-0.029c0.297-0.012,0.539-0.016,0.715-0.016c0.276,0,0.659,0.01,1.143,0.024
		c0.483,0.016,1.032,0.024,1.642,0.04c0.614,0.016,1.259,0.025,1.929,0.025c0.171,0,0.308-0.025,0.413-0.07
		c0.105-0.051,0.156-0.127,0.161-0.231c0-0.075-0.041-0.136-0.116-0.177c-0.08-0.045-0.201-0.064-0.367-0.064
		c-0.155,0-0.321-0.006-0.509-0.016c-0.182-0.016-0.361-0.03-0.544-0.045c-0.181-0.021-0.342-0.041-0.488-0.061
		c-0.297-0.041-0.527-0.127-0.693-0.258s-0.287-0.297-0.362-0.504c-0.076-0.206-0.126-0.447-0.151-0.72
		c-0.04-0.438-0.064-0.981-0.086-1.642c-0.015-0.66-0.023-1.404-0.029-2.246c-0.005-0.84-0.005-1.746-0.005-2.728v-5.315
		c0-0.912,0-1.691,0-2.336c0-0.646,0-1.188,0.005-1.627c0-0.438,0.006-0.801,0.011-1.093c0-0.292,0.01-0.544,0.016-0.755
		c0.01-0.207,0.021-0.408,0.029-0.595c0.021-0.523,0.116-0.927,0.277-1.203c0.16-0.271,0.441-0.448,0.841-0.519
		c0.176-0.03,0.337-0.056,0.473-0.07c0.142-0.016,0.287-0.021,0.435-0.021c0.149,0,0.271-0.02,0.353-0.061
		c0.085-0.045,0.13-0.125,0.13-0.241c0-0.091-0.061-0.149-0.171-0.19c-0.11-0.035-0.267-0.051-0.463-0.051
		c-0.292,0-0.609,0.006-0.951,0.016c-0.348,0.005-0.69,0.021-1.037,0.029c-0.348,0.01-0.67,0.021-0.962,0.03
		c-0.297,0.01-0.543,0.017-0.734,0.017c-0.222,0-0.498-0.007-0.82-0.017c-0.327-0.01-0.669-0.021-1.042-0.03
		c-0.367-0.01-0.729-0.024-1.087-0.029c-0.358-0.01-0.686-0.016-0.979-0.016c-0.24,0-0.423,0.016-0.543,0.051
		c-0.121,0.041-0.182,0.101-0.182,0.19c0,0.116,0.045,0.196,0.131,0.241c0.081,0.041,0.201,0.061,0.354,0.061
		c0.181,0,0.366,0.006,0.554,0.025c0.187,0.021,0.368,0.051,0.532,0.096c0.334,0.07,0.579,0.242,0.74,0.52
		c0.166,0.271,0.263,0.658,0.287,1.173c0.01,0.187,0.021,0.388,0.03,0.595c0.005,0.211,0.015,0.463,0.021,0.755
		c0,0.292,0.006,0.654,0.006,1.093c0.005,0.438,0.005,0.981,0.005,1.627c0,0.645,0,1.424,0,2.336v5.318H473.525z M454.949,342.768
		c0.187,0.469,0.343,0.84,0.463,1.107c0.126,0.271,0.237,0.463,0.343,0.573c0.102,0.11,0.217,0.166,0.342,0.161
		c0.137,0.005,0.263-0.062,0.373-0.191c0.115-0.131,0.247-0.357,0.403-0.686c0.15-0.326,0.355-0.779,0.613-1.358
		c0.222-0.508,0.522-1.203,0.905-2.079c0.384-0.881,0.837-1.918,1.359-3.121c0.523-1.203,1.107-2.537,1.752-4.012
		c0.327-0.74,0.619-1.41,0.892-2.004c0.267-0.6,0.519-1.153,0.75-1.666c0.231-0.51,0.452-1.002,0.67-1.48
		c0.212-0.474,0.428-0.957,0.64-1.449c0.216-0.494,0.443-1.021,0.675-1.586c0.271-0.64,0.503-1.138,0.704-1.506
		c0.202-0.361,0.378-0.64,0.534-0.82c0.15-0.176,0.292-0.313,0.423-0.393c0.187-0.121,0.372-0.207,0.559-0.257
		c0.188-0.051,0.362-0.081,0.523-0.097c0.161-0.01,0.297-0.016,0.397-0.01c0.15,0,0.271-0.021,0.356-0.056
		c0.081-0.04,0.126-0.116,0.126-0.217c0-0.104-0.06-0.177-0.171-0.218c-0.11-0.039-0.267-0.055-0.463-0.055
		c-0.231,0-0.483,0.006-0.756,0.016c-0.271,0.005-0.538,0.021-0.812,0.029c-0.271,0.011-0.518,0.021-0.738,0.03
		c-0.222,0.009-0.403,0.017-0.534,0.017c-0.136,0-0.354-0.012-0.659-0.025c-0.309-0.016-0.675-0.03-1.107-0.041
		c-0.428-0.016-0.896-0.023-1.404-0.023c-0.286-0.006-0.498,0.015-0.64,0.061c-0.136,0.04-0.206,0.121-0.206,0.24
		c0.006,0.102,0.056,0.166,0.155,0.201c0.096,0.03,0.217,0.041,0.357,0.041c0.2,0,0.402,0.011,0.613,0.029
		c0.212,0.021,0.408,0.061,0.596,0.121c0.136,0.046,0.235,0.126,0.297,0.23c0.064,0.102,0.096,0.218,0.096,0.344
		c0,0.141-0.03,0.313-0.081,0.514c-0.05,0.201-0.116,0.402-0.19,0.604c-0.105,0.293-0.271,0.721-0.488,1.285
		c-0.222,0.567-0.482,1.229-0.78,1.987c-0.302,0.761-0.624,1.57-0.966,2.438c-0.348,0.87-0.7,1.752-1.058,2.644
		c-0.357,0.896-0.7,1.762-1.037,2.604c-0.338,0.841-0.641,1.609-0.922,2.311c-0.276,0.705-0.514,1.294-0.699,1.777h-0.121
		l-5.195-13.715c-0.211-0.549-0.382-1.021-0.503-1.424c-0.126-0.402-0.187-0.699-0.19-0.901c0-0.136,0.024-0.257,0.069-0.362
		c0.051-0.105,0.126-0.195,0.231-0.271c0.126-0.09,0.292-0.146,0.499-0.176c0.206-0.024,0.433-0.041,0.679-0.035
		c0.137,0,0.247-0.021,0.327-0.056c0.081-0.04,0.127-0.116,0.127-0.217c-0.006-0.104-0.076-0.176-0.212-0.217
		c-0.137-0.04-0.297-0.056-0.483-0.056c-0.509,0-0.997,0.011-1.465,0.024c-0.473,0.011-0.901,0.024-1.289,0.041
		c-0.383,0.015-0.704,0.024-0.962,0.024c-0.357,0-0.774-0.01-1.248-0.024c-0.479-0.017-0.98-0.03-1.521-0.041
		c-0.533-0.015-1.072-0.024-1.61-0.024c-0.231-0.004-0.419,0.011-0.564,0.045c-0.141,0.035-0.216,0.11-0.222,0.228
		c0,0.091,0.025,0.156,0.081,0.201c0.055,0.046,0.146,0.069,0.282,0.069c0.125-0.004,0.297,0,0.508,0.017
		c0.217,0.01,0.438,0.045,0.67,0.104c0.357,0.092,0.664,0.213,0.927,0.357c0.256,0.15,0.493,0.373,0.704,0.67
		c0.218,0.303,0.438,0.721,0.665,1.27L454.949,342.768L454.949,342.768z M421.19,335.428c0,0.932,0,1.803-0.007,2.622
		c-0.005,0.815-0.02,1.546-0.04,2.195c-0.02,0.649-0.055,1.188-0.104,1.616c-0.035,0.291-0.086,0.559-0.146,0.789
		c-0.061,0.236-0.146,0.429-0.263,0.58c-0.11,0.149-0.267,0.25-0.468,0.291c-0.136,0.03-0.292,0.062-0.473,0.086
		c-0.183,0.021-0.389,0.035-0.614,0.035c-0.177,0-0.304,0.021-0.378,0.064c-0.07,0.041-0.105,0.102-0.105,0.177
		c0,0.105,0.05,0.183,0.155,0.231c0.102,0.045,0.252,0.07,0.448,0.07c0.308-0.006,0.645-0.016,1.007-0.03
		c0.368-0.021,0.726-0.029,1.078-0.029c0.366-0.017,0.704-0.026,1.006-0.026c0.308-0.004,0.544-0.004,0.715-0.004
		c0.383,0,0.826,0.021,1.335,0.055c0.503,0.035,1.047,0.082,1.626,0.127s1.168,0.091,1.762,0.126
		c0.595,0.034,1.163,0.056,1.711,0.056c1.396-0.011,2.645-0.126,3.746-0.357c1.099-0.231,2.064-0.528,2.891-0.892
		c0.825-0.367,1.524-0.75,2.104-1.157c0.573-0.408,1.037-0.796,1.379-1.158c0.429-0.434,0.836-0.932,1.229-1.511
		c0.394-0.573,0.745-1.213,1.053-1.923c0.313-0.71,0.554-1.48,0.735-2.316c0.181-0.83,0.271-1.727,0.275-2.678
		c-0.01-1.197-0.15-2.275-0.423-3.236c-0.277-0.961-0.635-1.813-1.077-2.547c-0.438-0.735-0.917-1.365-1.43-1.889
		c-0.66-0.686-1.385-1.244-2.16-1.682c-0.78-0.438-1.591-0.775-2.437-1.018c-0.847-0.246-1.701-0.418-2.567-0.522
		c-0.866-0.106-1.717-0.173-2.553-0.197c-0.84-0.021-1.636-0.028-2.396-0.024c-0.607,0-1.213,0.011-1.802,0.024
		c-0.594,0.011-1.138,0.024-1.631,0.041c-0.494,0.015-0.901,0.024-1.219,0.024c-0.292,0-0.676-0.01-1.147-0.024
		c-0.474-0.017-0.992-0.03-1.551-0.041c-0.56-0.015-1.107-0.024-1.651-0.024c-0.227-0.004-0.393,0.016-0.503,0.056
		c-0.105,0.041-0.161,0.11-0.161,0.217c0,0.101,0.045,0.177,0.131,0.217c0.091,0.035,0.218,0.056,0.383,0.056
		c0.222,0,0.438,0.006,0.66,0.021c0.217,0.017,0.393,0.04,0.519,0.07c0.327,0.065,0.584,0.172,0.765,0.313
		c0.183,0.136,0.313,0.322,0.395,0.554c0.075,0.228,0.125,0.515,0.141,0.855c0.01,0.188,0.021,0.389,0.03,0.596
		c0.005,0.211,0.015,0.463,0.02,0.754c0,0.293,0.005,0.659,0.005,1.092c0.007,0.438,0.007,0.982,0.007,1.628
		c0,0.645,0,1.424,0,2.336v5.313H421.19z M424.966,329.628c0-0.604,0-1.203,0-1.808c0-0.605,0-1.178,0.005-1.723
		c0-0.549,0.005-1.037,0.011-1.47c0-0.435,0.011-0.78,0.016-1.043c0-0.166,0.024-0.291,0.08-0.382
		c0.056-0.092,0.146-0.166,0.282-0.223c0.064-0.029,0.171-0.061,0.321-0.086c0.151-0.024,0.327-0.045,0.523-0.064
		s0.393-0.034,0.589-0.045c0.196-0.01,0.373-0.016,0.529-0.016c0.594-0.006,1.243,0.025,1.941,0.096
		c0.705,0.07,1.431,0.212,2.19,0.418c0.755,0.207,1.51,0.509,2.266,0.91c0.755,0.404,1.479,0.938,2.181,1.597
		c0.332,0.308,0.664,0.694,1.002,1.163c0.337,0.464,0.648,1.013,0.937,1.637c0.286,0.629,0.519,1.34,0.689,2.129
		c0.176,0.791,0.267,1.661,0.271,2.623c0.005,1.043-0.07,2.029-0.227,2.965c-0.156,0.933-0.423,1.787-0.79,2.559
		c-0.372,0.775-0.881,1.439-1.521,1.999c-0.599,0.522-1.237,0.94-1.923,1.264c-0.68,0.317-1.436,0.549-2.256,0.694
		c-0.825,0.146-1.747,0.222-2.77,0.217c-0.789-0.005-1.46-0.064-1.998-0.188c-0.538-0.121-0.973-0.271-1.288-0.453
		c-0.317-0.181-0.544-0.371-0.671-0.567c-0.079-0.121-0.141-0.313-0.187-0.574c-0.045-0.268-0.08-0.554-0.101-0.866
		s-0.035-0.594-0.045-0.854c-0.011-0.196-0.021-0.574-0.03-1.128c-0.009-0.555-0.017-1.248-0.021-2.094
		c-0.005-0.848-0.01-1.809-0.01-2.881v-3.806H424.966z M401.204,334.793c-0.06,0-0.101-0.021-0.115-0.061
		c-0.021-0.041-0.021-0.092-0.005-0.151l2.778-7.431c0.016-0.065,0.041-0.127,0.07-0.182c0.029-0.056,0.064-0.086,0.11-0.091
		c0.045,0.005,0.075,0.035,0.102,0.091c0.021,0.055,0.034,0.115,0.051,0.182l2.718,7.461c0.016,0.046,0.016,0.091-0.005,0.125
		c-0.025,0.035-0.07,0.057-0.146,0.057H401.204z"/>
</g>
<g id="Layer_4">
	<rect x="592.071" y="333.148" fill="#FF6600" width="126.004" height="2.287"/>
</g>
<g id="Layer_5">
	<rect x="248.859" y="333.148" fill="#FF6600" width="126.154" height="2.287"/>
</g>
<g id="Layer_6">
	<path fill="#003660" d="M79.699,350.749c41.43-18.298,89.999-24.821,137.975-23.272v-67.563H79.699V350.749L79.699,350.749z
		 M136.688,277.691v24.769l0.011,5.375c0.011,1.674,0.041,3.179,0.081,4.521c0.044,1.344,0.115,2.459,0.218,3.355
		c0.051,0.578,0.154,1.114,0.301,1.578c0.143,0.475,0.372,0.868,0.702,1.177c0.328,0.3,0.802,0.507,1.413,0.589l1.001,0.122
		l1.114,0.097c0.383,0.019,0.733,0.028,1.042,0.028c0.342,0,0.589,0.04,0.754,0.134c0.154,0.084,0.236,0.207,0.236,0.362
		c-0.011,0.214-0.114,0.372-0.328,0.476c-0.217,0.093-0.496,0.144-0.846,0.144c-1.375,0-2.693-0.021-3.943-0.051l-3.355-0.082
		c-0.99-0.032-1.755-0.054-2.3-0.054c-0.361,0-0.857,0.011-1.467,0.031l-2.042,0.063l-2.229,0.063
		c-0.743,0.019-1.435,0.028-2.063,0.028c-0.402,0-0.711-0.051-0.92-0.144c-0.217-0.104-0.32-0.262-0.32-0.476
		c0-0.155,0.074-0.278,0.217-0.362c0.155-0.094,0.415-0.134,0.776-0.134c0.464,0,0.887-0.028,1.258-0.073
		c0.372-0.052,0.691-0.113,0.971-0.174c0.412-0.082,0.733-0.289,0.958-0.6c0.238-0.298,0.412-0.702,0.538-1.178
		c0.125-0.484,0.228-1.032,0.301-1.629c0.103-0.879,0.173-1.982,0.217-3.314c0.041-1.329,0.071-2.825,0.082-4.499l0.011-5.375
		v-10.899v-4.787l-0.011-3.333l-0.011-2.24l-0.041-1.548l-0.062-1.218c-0.031-0.702-0.133-1.288-0.288-1.754
		c-0.166-0.475-0.434-0.857-0.806-1.134c-0.372-0.29-0.897-0.507-1.57-0.64c-0.258-0.063-0.618-0.114-1.063-0.146
		c-0.453-0.03-0.897-0.041-1.351-0.041c-0.341,0-0.599-0.041-0.784-0.111c-0.176-0.084-0.269-0.24-0.269-0.445
		c0-0.217,0.114-0.361,0.332-0.444c0.225-0.082,0.567-0.123,1.03-0.115c1.115,0,2.24,0.022,3.385,0.052
		c1.147,0.022,2.21,0.051,3.179,0.084c0.971,0.03,1.755,0.051,2.354,0.051c0.857,0,1.796-0.021,2.83-0.051l3.127-0.084
		c1.052-0.029,2.063-0.052,3.021-0.052c1.931,0.011,3.572,0.155,4.925,0.424c1.362,0.268,2.484,0.599,3.363,0.993
		c0.887,0.39,1.589,0.783,2.104,1.166c0.507,0.39,0.89,0.699,1.126,0.949c0.464,0.431,0.941,1.02,1.415,1.755
		c0.464,0.731,0.865,1.578,1.186,2.527c0.32,0.96,0.485,1.979,0.496,3.086c-0.011,2.208-0.393,4.22-1.147,6.045
		c-0.754,1.828-1.807,3.406-3.168,4.738c-1.372,1.343-2.983,2.365-4.83,3.097c-1.847,0.722-3.878,1.093-6.088,1.104l-0.651-0.011
		c-0.258,0-0.475-0.021-0.648-0.051c-0.166-0.019-0.331-0.073-0.485-0.144c-0.166-0.062-0.247-0.206-0.257-0.412
		c-0.012-0.25,0.114-0.425,0.382-0.528c0.258-0.103,0.711-0.152,1.351-0.152c0.887,0,1.807-0.238,2.756-0.713
		c0.96-0.464,1.858-1.145,2.693-2.034c0.835-0.876,1.516-1.95,2.045-3.208c0.515-1.259,0.794-2.683,0.802-4.264
		c0.011-0.516-0.019-1.145-0.082-1.877c-0.062-0.734-0.206-1.527-0.444-2.373c-0.226-0.849-0.598-1.704-1.094-2.571
		c-0.497-0.865-1.177-1.681-2.034-2.467c-0.75-0.67-1.505-1.187-2.278-1.536c-0.765-0.353-1.487-0.588-2.17-0.713
		c-0.681-0.115-1.259-0.176-1.744-0.166c-0.474,0-0.916,0.011-1.339,0.051c-0.434,0.042-0.787,0.103-1.074,0.198
		c-0.155,0.06-0.28,0.185-0.361,0.38C136.729,277.083,136.688,277.352,136.688,277.691L136.688,277.691z M111.903,304.875
		c-0.079,1.237-0.218,2.479-0.435,3.715c-0.217,1.236-0.534,2.436-0.941,3.604c-0.439,1.267-1.09,2.572-1.979,3.901
		c-0.892,1.332-2.053,2.665-3.458,3.981c-1.41,1.322-3.105,2.596-5.087,3.816c-0.401,0.25-0.86,0.494-1.362,0.756
		c-0.507,0.264-1.091,0.537-1.735,0.856c-0.222,0.11-0.442,0.22-0.66,0.279c-0.225,0.062-0.412,0.092-0.578,0.092
		c-0.124,0-0.238-0.041-0.341-0.134c-0.092-0.083-0.144-0.208-0.155-0.362c-0.008-0.146,0.087-0.296,0.29-0.464
		c0.198-0.16,0.556-0.383,1.074-0.65c0.398-0.207,0.835-0.505,1.321-0.877c0.486-0.371,1.036-0.861,1.649-1.476
		c1.171-1.171,2.071-2.484,2.717-3.913c0.642-1.43,1.098-3.055,1.369-4.871c0.274-1.825,0.445-3.91,0.497-6.254
		c0.052-2.352,0.063-5.036,0.063-8.057v-12.045v-4.79l-0.011,1.457l-0.012-2.24l-0.04-1.548l-0.063-1.218
		c-0.029-0.702-0.132-1.288-0.288-1.754c-0.165-0.475-0.433-0.856-0.805-1.134c-0.372-0.29-0.897-0.507-1.57-0.64
		c-0.258-0.063-0.619-0.114-1.061-0.146c-0.456-0.03-0.9-0.041-1.354-0.041c-0.342,0-0.599-0.041-0.783-0.111
		c-0.177-0.084-0.269-0.24-0.269-0.445c0-0.217,0.114-0.361,0.331-0.444c0.226-0.082,0.567-0.123,1.031-0.115
		c0.828,0,1.673,0.011,2.528,0.033c0.868,0.008,1.693,0.041,2.498,0.063l2.177,0.06c0.651,0.021,1.178,0.032,1.59,0.032
		c0.382,0,0.889-0.011,1.507-0.032l2.043-0.06c0.743-0.021,1.486-0.054,2.221-0.063c0.743-0.021,1.424-0.033,2.031-0.033
		c0.435,0,0.754,0.033,0.971,0.115c0.218,0.083,0.329,0.228,0.329,0.444c0,0.206-0.093,0.361-0.277,0.445
		c-0.188,0.07-0.467,0.111-0.838,0.111c-0.328,0-0.618,0.011-0.876,0.041c-0.257,0.033-0.555,0.084-0.917,0.146
		c-0.817,0.144-1.395,0.504-1.725,1.063c-0.33,0.567-0.525,1.391-0.567,2.465l-0.063,1.218c-0.011,0.433-0.032,0.949-0.032,1.548
		c-0.008,0.599-0.019,1.343-0.019,2.24l-0.011-1.457v4.79v5.728c0,1.332,0.041,2.734,0.092,4.202
		c0.051,1.464,0.09,2.983,0.092,4.528C112.02,302.409,111.979,303.627,111.903,304.875L111.903,304.875z M185.015,291.005
		l2.393,6.007l2.354,5.839c0.754,1.88,1.465,3.624,2.126,5.234l1.733,4.188c0.588,1.375,1.145,2.489,1.662,3.345
		c0.515,0.856,1,1.519,1.454,1.991c0.456,0.466,0.878,0.808,1.258,1.014c0.393,0.206,0.754,0.352,1.074,0.434
		c0.467,0.092,0.931,0.155,1.372,0.195c0.445,0.03,0.857,0.052,1.229,0.052c0.25-0.011,0.445,0.02,0.588,0.082
		c0.144,0.063,0.217,0.206,0.217,0.414c0.011,0.166-0.073,0.288-0.228,0.38c-0.166,0.096-0.453,0.155-0.865,0.188
		c-0.415,0.028-1,0.051-1.754,0.051l-2.921-0.011c-1.2,0-2.55-0.012-4.046-0.029c-1.497-0.011-3.076-0.043-4.736-0.084
		c-0.57-0.02-1.011-0.063-1.342-0.113c-0.341-0.053-0.504-0.175-0.518-0.381c0-0.188,0.065-0.313,0.208-0.393
		c0.133-0.085,0.351-0.133,0.66-0.166c0.238-0.063,0.422-0.229,0.559-0.475c0.144-0.258,0.144-0.566,0-0.949l-4.955-13.126
		c-0.06-0.154-0.145-0.269-0.236-0.331c-0.104-0.073-0.228-0.103-0.383-0.103h-13.81c-0.155,0-0.269,0.03-0.35,0.103
		c-0.082,0.082-0.143,0.206-0.206,0.393l-3.344,8.852c-0.309,0.787-0.537,1.521-0.691,2.188c-0.154,0.671-0.236,1.207-0.236,1.59
		c-0.021,0.566,0.154,1.033,0.515,1.384c0.361,0.35,1.023,0.525,1.96,0.536h0.928c0.364,0,0.609,0.029,0.743,0.114
		c0.135,0.07,0.198,0.193,0.188,0.382c0,0.235-0.093,0.401-0.269,0.494c-0.184,0.084-0.445,0.124-0.784,0.124
		c-0.672,0-1.384-0.021-2.159-0.051l-2.292-0.082c-0.762-0.032-1.464-0.055-2.113-0.055l-0.981,0.032l-1.723,0.063l-2.2,0.063
		c-0.794,0.02-1.589,0.029-2.405,0.029c-0.402,0-0.7-0.04-0.888-0.124c-0.195-0.093-0.288-0.259-0.288-0.494
		c0-0.188,0.063-0.312,0.185-0.382c0.125-0.085,0.31-0.114,0.559-0.114c0.287,0,0.618-0.011,0.979-0.04
		c0.361-0.021,0.681-0.052,0.939-0.085c0.941-0.122,1.725-0.434,2.354-0.917c0.629-0.484,1.177-1.125,1.63-1.92
		c0.456-0.783,0.876-1.703,1.28-2.736l15.543-38.886c0.36-0.887,0.658-1.527,0.919-1.91c0.247-0.39,0.515-0.578,0.813-0.567
		c0.269-0.011,0.516,0.145,0.754,0.453c0.229,0.309,0.493,0.827,0.794,1.53c0.195,0.431,0.497,1.174,0.928,2.227l1.538,3.832
		l2.004,5.004L185.015,291.005L185.015,291.005z M181.05,300.787c0.033,0.095,0.033,0.188-0.011,0.261
		c-0.051,0.07-0.144,0.111-0.298,0.111h-11.394c-0.125,0-0.206-0.041-0.235-0.123c-0.043-0.083-0.043-0.187-0.011-0.31l5.695-15.233
		c0.032-0.136,0.084-0.258,0.146-0.372c0.06-0.114,0.133-0.176,0.225-0.187c0.095,0.011,0.155,0.073,0.207,0.187
		c0.043,0.114,0.073,0.236,0.104,0.372L181.05,300.787z"/>
</g>
<g id="Layer_7">
	<path fill="#FF6600" d="M217.674,328.087c-37.102,1.563-74.233,9.011-108.231,25.001h108.231V328.087z"/>
</g>
<g id="Layer_8">
	<path fill="#003660" d="M222.154,255.434v102.132H75.22V255.434H222.154L222.154,255.434z M224.925,252.663H72.45v107.675h152.476
		L224.925,252.663L224.925,252.663z"/>
</g>
</svg>
